{
  "W0001" : "회원가입",
  "W0002" : "로그인",
  "W0003" : "고객센터",
  "W0004" : "공지사항",
  "W0005" : "FAQ",
  "W0006" : "또는",
  "W0007" : "로그아웃",
  "W0008" : "내 프로필",
  "W0009" : "추천",
  "W0010" : "일상",
  "W0011" : "Special",
  "W0012" : "지금 뜨는 라이프",
  "W0013" : "전체 보기",
  "W0014" : "이용약관",
  "W0015" : "이전",
  "W0016" : "다음",
  "W0017" : "외",
  "W0018" : "오프렌즈 평점",
  "W0019" : "호스트",
  "W0020" : "오프렌즈",
  "W0021" : "좋아요",
  "W0022" : "호스트 후기",
  "W0023" : "라이프 소개",
  "W0024" : "옵션선택",
  "W0025" : "기본옵션",
  "W0026" : "일정",
  "W0027" : "신청 마감",
  "W0028" : "명",
  "W0029" : "남은 수량",
  "W0030" : "개",
  "W0031" : "#관심사 설정하러 가기",
  "W0032" : "내 라이프",
  "W0033" : "내 관심사",
  "W0034" : "쿠폰",
  "W0035" : "닉네임",
  "W0036" : "활동고객등록",
  "W0037" : "이름",
  "W0038" : "생년월일",
  "W0039" : "성별",
  "W0040" : "휴대폰 번호",
  "W0041" : "이메일",
  "W0042" : "비밀번호",
  "W0043" : "프로모션 코드",
  "W0044" : "수정",
  "W0045" : "저장",
  "W0046" : "등록완료",
  "W0047" : "인증완료",
  "W0048" : "변경하기",
  "W0049" : "입력",
  "W0050" : "등록하기",
  "W0051" : "이름입력",
  "W0052" : "삭제",
  "W0053" : "취소",
  "W0054" : "비밀번호 변경",
  "W0055" : "사용가능",
  "W0056" : "신청내역",
  "W0057" : "후기",
  "W0058" : "유효기간",
  "W0059" : "옵션",
  "W0060" : "결제",
  "W0061" : "수량",
  "W0062" : "상세정보",
  "W0063" : "취소됨",
  "W0064" : "결제정보",
  "W0065" : "상품 금액",
  "W0066" : "할인",
  "W0067" : "결제 금액",
  "W0068" : "결제 수단",
  "W0069" : "일정 취소하기",
  "W0070" : "참여",
  "W0071" : "후기 쓰기",
  "W0072" : "후기 수정",
  "W0073" : "작성",
  "W0074" : "후기 작성",
  "W0075" : "저장하기",
  "W0076" : "평점",
  "W0077" : "내용",
  "W0078" : "사진",
  "W0079" : "수정하기",
  "W0080" : "참여하기",
  "W0081" : "활동 고객 등록",
  "W0082" : "선택한 라이프",
  "W0083" : "상품금액",
  "W0084" : "할인금액",
  "W0085" : "최종 결제 금액",
  "W0086" : "개",
  "W0087" : "선택하기",
  "W0088" : "적용 가능한 쿠폰",
  "W0089" : "적용하기",
  "W0090" : "결제하기",
  "W0091" : "확인",
  "W0092" : "결제 완료",
  "W0093" : "이메일로 시작하기",
  "W0094" : "페이스북으로 시작하기",
  "W0095" : "카카오계정으로 시작하기",
  "W0096" : "이메일로 로그인",
  "W0097" : "페이스북으로 로그인",
  "W0098" : "카카오계정으로 로그인",
  "W0099" : "이메일 입력",
  "W0100" : "비밀번호 입력",
  "W0101" : "비밀번호 확인",
  "W0102" : "프로모션 코드(선택)",
  "W0103" : "이용 약관",
  "W0104" : "개인정보 수집 및 이용",
  "W0105" : "이메일로 가입하기",
  "W0106" : "프로모션 코드가 있으면 입력해주세요.",
  "W0107" : "가입하기",
  "W0108" : "임시 비밀번호 발급",
  "W0109" : "이메일 발송",
  "W0110" : "임시 비밀번호로 로그인하기",
  "W0111" : "약관동의",
  "W0123" : "카카오톡 문의하기",
  "W0124" : "이메일 문의하기",
  "W0125" : "hot",
  "W0126" : "new",
  "W0127" : "only",
  "W0128" : "검색",
  "W0129" : "정렬",
  "W0130" : "검색 결과",
  "W0131" : "개인정보 처리방침",
  "W0132" : "",
  "W0133" : "오프렌즈 혜택 100% 누리기",
  "W0134" : "1. 본인 인증",
  "W0135" : "2. 마케팅 동의",
  "W0136" : "개인정보의 수집, 이용",
  "W0137" : "개인정보의 제공",
  "W0138" : "5년",
  "W0139" : "4년",
  "W0140" : "3년",
  "W0141" : "2년",
  "W0142" : "1년",
  "W0143" : "보유 이용 기간",
  "W0144" : "연락방식 (다중선택가능)",
  "W0145" : "전화",
  "W0146" : "SMS",
  "W0147" : "이메일",
  "W0148" : "휴대폰 인증하기",
  "W0149" : "인증 완료",
  "W0150" : "닫기",
  "W0151" : "동의하기",
  "W0152" : "멋진",
  "W0153" : "라이프",
  "W0154" : "프렌즈님",
  "W0155" : "이메일로 가입",
  "W0156" : "페이스북으로 가입",
  "W0157" : "카카오로 가입",
  "W0158" : "이름없음",
  "W0159" : "까지",

  "W0160" : "인",
  "W0161" : "이외 문의 사항은",
  "W0162" : "오프렌즈 고객센터",
  "W0163" : "카카오톡 문의",
  "W0164" : "플러스친구 @ofriends",
  "W0165" : "전화 문의",
  "W0166" : "070-5175-6637",
  "W0167" : "이메일 문의",
  "W0168" : "cs@ofriends.co.kr",
  "W0169" : "예",
  "W0170" : "아니오",
  "W0171" : "임시비밀번호 발급",
  "W0172" : "처리완료",

  "W1001" : "공유하기",
  "W1002" : "포함 사항",
  "W1003" : "불포함 사항",
  "W1004" : "세부 일정",
  "W1005" : "준비물",
  "W1006" : "유의사항",
  "W1007" : "진행 장소",
  "W1008" : "자주 묻는 질문",
  "W1009" : "문의 하기",
  "W1010" : "환불 정책",
  "W1011" : "큰 지도보기",
  "W1012" : "(주)프렌트립",
  "W1013" : "전체 동의",
  "W1014" : "회원 탈퇴",
  "W1015" : "계정 삭제하기",
  "W1016" : "동의하고 탈퇴",
  "W1017" : "휴대폰 인증",
  "W1018" : "생년월일/성별",
  "W1019" : "인증번호",
  "W1020" : "인증하기",
  "W1021" : "마케팅동의(선택)",
  "W1022" : "슈퍼프렌즈 되기",
  "W1023" : "2. 마케팅 동의(선택)",
  "W1024" : "마케팅 동의(선택)",
  "W1025" : "슈퍼 프렌즈 등업(마케팅동의)",
  "W1026" : "본인 인증",
  "W1027" : "등업하기",
  "W1028" : "등업완료",
  "W1029" : "슈퍼프렌즈 등업 신청",
  "W1030" : "남자",
  "W1031" : "여자",
  "W1032" : "알 수 없음",
  "W1033" : "이벤트 소개",
  "W1034" : "본인인증",
  "W1035" : "1. 본인 인증",
  "W1036" : "2. 마케팅 동의",
  "W1037" : "다시 보지 않기",
  "W1038" : "슈퍼프렌즈란?",
  "W1039" : "오프렌즈 소개",
  "W1040" : "매거진",
  "W1041" : "관련 상품",
  "W1042" : "이벤트/혜택",
  "W1043" : "이벤트",
  "W1044" : "진행중인 이벤트",
  "W1045" : "종료된 이벤트",
  "W1046" : "제휴서비스",
  "W1047" : "SMS (필수)",
  "W1048" : "오프렌즈 혜택",
  "W1049" : "이벤트 게시판",
  "W1050" : "따끈한 신규 라이프",
  "W1051" : "또 하나의 라이프",
  "S0001" : "해주세요",
  "S0002" : "즐기고 싶은 라이프를 검색해 보세요",
  "S0003" : "명이 좋아한 라이프",
  "S0004" : "개의 일정",
  "S0005" : "개 후기 모두 보기",
  "S0006" : "프로모션 코드를 삭제할까요?",
  "S0007" : "기존 비밀번호 입력",
  "S0008" : "새 비밀번호 입력",
  "S0009" : "새 비밀번호 한번 더 입력",
  "S0010" : "기존의 비밀번호가 일치하지 않습니다.",
  "S0011" : "사용가능한 라이프가 없습니다.",
  "S0012" : "신청 인원이 가득 차 신청할 수 없습니다.<br>다른 일정을 선택해 주세요!",
  "S0013" : "오프렌즈 소모임 참여를 위해서는 <font>&nbsp;최초1회&nbsp;</font> 본인 인증을 진행합니다.",
  "S0014" : "개인정보 제 3자 제공동의, 결제 대행 서비스 이용 약관 등 모든 약관에 동의합니다.",
  "S0015" : "적용 가능한 쿠폰이 없습니다.",
  "S0016" : "<span class=\"use-privacy-agreement-msg\">개인정보 제 3자 제공동의, 결제 대행 서비스 이용 약관 등 모든 약관에 동의하셔야 구매할 수 있습니다.</span>",
  "S0017" : "<span class=\"payment-method-msg\">결제수단을 선택해 주셔야 구매할 수 있습니다.</span>",
  "S0018" : "오프렌즈 소모임 참여를 위한 최초 1회 본인 인증을 진행합니다.",
  "S0019" : "에 동의합니다 (필수)",
  "S0020" : "프로모션 코드가 있으면 입력해주세요.",
  "S0021" : "이미 사용중인 이메일입니다.",
  "S0022" : "유효하지 않은 프로모션 코드입니다.",
  "S0023" : "비밀번호를 잊어버리셨나요?",
  "S0024" : "비밀번호를 재설정하려는 계정(이메일)을 입력해 주세요.",
  "S0025" : "임시 비밀번호를 발급하여 입력하신 주소로 발송했습니다.<br>만약 이메일을 받지 못했다면 스팸함을 확인해 주시고,<br>가입된 이메일인지 다시 한번 확인해 주시기 바랍니다.",
  "S0026" : "회원가입에 실패 했습니다. 잠시후 다시 시도해 주세요.",
  "S0027" : "로그인 후 이용해주세요",
  "S0028" : "즐기고 싶은<br> <font>라이프</font>를 검색해보세요!",
  "S0029" : "검색 결과가 없습니다.",
  "S0030" : "제1조 (목적) 이 약관은 주식회사 프렌트립과 오렌지라이프생명보험 주식회사 (이하 '양사' 또는 '회사')가 공동 운영하는 인터넷 사이트(이하 “사이트”라 함)를 통하여 제공하는 인터넷 전자상거래 관련 서비스(이하 “서비스”라 함)와 관련하여 회사와 이용자의 권리, 의무, 책임사항을 규정함을 목적으로 합니다. 또한 본 약관은 유무선 PC통신, 스마트폰(아이폰, 안드로이드폰 등) 어플리케이션 및 모바일 웹 등을 이용하는 전자상거래 등에 대해서도 그 성질에 반하지 않는 한 준용됩니다.\n\n제2조 (용어의 정의) 이 약관에서 사용하는 용어의 정의는 다음과 같습니다. \n1. 회사가 운영하는 사이트: Ofriends.co.kr. 외 회사에서 공지하고 제공하는 기타 웹사이트 및 모바일 어플리케이션 및 모바일 웹을 포함합니다. \n2. 회사가 제공하는 서비스: 회사가 운영하는 사이트를 통하여 회원 상호간에 액티비티의 거래가 이루어질 수 있도록 사이버 거래장소를 온라인으로 제공하는 중개 서비스 및 관련 부가서비스 일체와, 액티비티의 결제가 안전하고 편리하게 이루어질 수 있는 결제대금 보호서비스를 말합니다. \n3. 이용자: 사이트에 접속하여 이 약관에 따라 회사가 제공하는 서비스를 받는 회원 및 비회원을 말합니다. \n4. 회원: 회사에 개인정보를 제공하여 회원 등록을 한 자로서, 회사의 정보를 지속적으로 제공받으며, 이 약관에 따라 회사와 서비스 이용계약을 체결한 자를 말하며, 구매회원과 판매회원으로 구별되며 이들을 통칭하여 회원이라고 합니다. \n5. 이메일: 회원의 식별과 서비스 이용을 위하여 회원이 선택하고 회사가 승인한 이메일 주소를 말합니다. \n6. 비밀번호: 회원의 동일성 확인과 회원의 권익 및 비밀 보호를 위하여 회원 스스로가 설정하여 회사에 등록한 영문과 숫자의 조합을 말합니다. \n7. 에너지: 이용자가 유상으로 결제하여 충전하거나, 회사로부터 적립 받아 사이트에서 상품 구매, 서비스 이용 등에 사용할 수 있는 전자적 지급수단을 말합니다.\n이 약관에서 정의되지 않은 용어는 관련법령이 정하는 바에 따르며, 그 외에는 일반적인 상거래 관행에 의합니다. \n\n제3조 (약관의 명시, 효력과 개정) \n1. 회사는 이 약관의 내용을 회사의 상호, 영업소 소재지, 대표자의 성명, 사업자등록번호, 연락처 등과 함께 회원이 확인할 수 있도록 사이트 초기 서비스 화면(전면)에 게시합니다. 다만, 이 약관의 구체적 내용은 연결화면을 통하여 볼 수 있습니다. \n2. 회사는 약관의 규제에 관한 법률, 전자거래기본법, 전자서명법, 정보통신망 이용촉진 및 정보보호 등에 관한 법률, 전자상거래 등에서의 소비자보호에 관한 법률, 전자금융거래법, 위치정보의 보호 및 이용 등에 관한 법률 등 관련법을 위배하지 않는 범위에서 본 약관을 개정할 수 있습니다. \n3. 회사가 약관을 개정할 경우에는 적용일자 및 개정사유를 명시하여 현행 약관과 함께 사이트 초기화면에 최소 적용일자 7일 이전부터 적용일자 전일까지 공지합니다. 다만, 회원의 권리, 의무에 중대한 영향을 주는 변경이 이루어질 경우에는 적용일자 30일 이전부터 공지합니다. \n4. 제3항에 따라 공지된 적용일자 이후에 회원이 회사의 서비스를 계속 이용하는 경우에는 개정된 약관에 동의하는 것으로 간주합니다. 개정된 약관에 동의하지 아니하는 회원은 언제든지 자유롭게 서비스 이용계약을 해지할 수 있습니다. \n5. 이 약관에서 정하지 아니한 사항과 이 약관의 해석에 관하여는 정부가 제정한 전자상거래 등에서의 소비자보호지침 및 관련법령 또는 상 관례에 따릅니다. \n\n제4조 (이용계약의 성립) \n1. 이용계약은 이용자의 약관 동의, 이용신청, 회사의 승낙에 의하여 성립합니다. \n2. 이용계약의 성립시기는 회사의 승낙이 이메일로 회원에게 도달한 시점으로 합니다. \n3. 이용계약은 관련법령에 의거 만14세 미만의 회원 가입이 제한됩니다.\n\n제5조 (이용신청 및 승낙) \n1. 이용자는 회사가 정한 가입 양식에 따라 회원정보를 기입한 후 가입 의사를 표시함으로써 이용계약을 신청합니다. \n2. 회사는 다음 각 호에 해당하는 이용신청에 대하여는 이를 승낙하지 아니하거나 사후에 이용계약을 해지할 수 있습니다. 이미 가입된 회원과 이메일 주소가 동일한 경우 타인의 명의를 도용하거나, 등록 내용에 허위, 기재누락, 오기가 있는 경우 회사에 의하여 이용계약이 해지된 날로부터 3개월 이내에 재이용을 신청하는 경우 이 약관에 의하여 이전에 회원자격을 상실한 적이 있는 경우(회원자격 상실 후 3개월이 경과한 자로서 회사의 회원 재이용 승낙을 얻은 경우에는 예외) 부정한 용도 또는 영리를 추구할 목적으로 본 서비스를 이용하고자 하는 경우 이전에 동일∙유사한 아이디 또는 다른 아이디를 통하여 부정한 사용을 한 이력이 있거나 의심되는 경우 관련법령에 위배되거나 사회의 안녕질서 혹은 미풍양속을 저해할 수 있는 목적으로 신청한 경우 회사의 서비스 운영에 따른 설비에 여유가 없거나 기술 상 지장이 있는 경우 만14세 미만의 아동이 법정대리인(부모 등)의 동의를 얻지 아니한 이용신청을 하는 경우 기타 이 약관에 위배되거나 위법 또는 부당한 이용신청임이 확인된 경우 및 회사가 합리적인 판단에 의하여 이용신청 거절 또는 이용계약 해지가 필요하다고 판단하는 경우, 이용신청의 거절 또는 이용계약을 해지할 수 있습니다. \n\n제6조 (회원정보의 수정) \n회원은 이용신청 시 작성한 이용신청 사항에 변경이 있는 경우, 온라인으로 개인정보를 수정하거나 이메일, 전화, 팩스 등의 방법으로 회사에 그 변경사항을 알려야 합니다. 이를 알리지 않아 발생하는 불이익에 대한 모든 책임은 회원에게 있습니다. \n\n제7조 (이용계약의 종료) \n1. 회원의 해지 회원은 언제든지 회사에게 해지의사를 통지함으로써 이용계약을 해지할 수 있습니다. 이용계약은 회사가 회원의 해지의사를 받아 해지 처리하는 시점에 종료됩니다. 본 항에 따라 해지를 한 회원은 이 약관이 정하는 회원가입절차와 관련조항에 따라 회원으로 다시 가입할 수 있습니다. \n2. 회사의 해지 회사는 다음과 같은 사유가 있는 경우 회원과의 이용계약을 해지할 수 있습니다. 이 경우 회사는 회원에게 이메일, 전화, SMS, 팩스 등의 방법을 통하여 해지사유를 밝혀 해지 의사를 통지합니다. 제5조 2항에서 정하고 있는 이용계약의 해지사유가 있음이 확인된 경우 회원이 회사나 다른 회원, 기타 타인의 권리나 명예, 신용, 기타 정당한 이익을 침해하는 행위를 한 경우 기타 회원이 이 약관에 위배되는 행위를 하거나 이 약관에서 정한 해지사유가 발생한 경우 회사는 불특정다수 회원에 대한 통지의 경우, 7일 이상 사이트에 게시함으로써 개별 통지에 갈음할 수 있습니다. 다만, 회원 본인의 거래에 관하여 중대한 영향을 미치는 사항에 대하여는 개별 통지합니다. 회사는 해당 회원에게 사전에 해지사유에 대한 의견진술의 기회를 부여할 수 있습니다. 일방이 정당한 사유 없이 임의로 이용계약을 종료·해지시키거나 고의 또는 과실로 인하여 이용계약이 종료·해지되는 경우, 상대방에게 손해가 발생한 경우 이를 배상할 책임이 있습니다. 만약 일방의 고의 또는 과실로 제3자에게 손해를 입힌 경우 자신의 책임으로 상대방을 면책시켜야 합니다. \n\n제8조 (이용제한 등) \n1. 회사는 회원이 다음 각 호의 사유에 해당하는 경우 경고, 일시정지, 영구이용정지 등으로 서비스의 이용을 단계적으로 제한할 수 있습니다. 가입 신청 시 허위 내용을 등록한 경우 물품 또는 서비스에 대한 대금 결제, 기타 서비스 이용과 관련하여 회원이 부담하는 채무를 기일에 이행하지 않는 경우 타인의 서비스 이용을 방해하거나 정보를 도용하는 등 전자상거래 질서를 위협하는 경우 회사를 이용하여 법령과 이 약관이 금지하거나 공공질서, 미풍양속에 반하는 행위를 하는 경우 회원이 구매한 물품을 고의로 훼손한 후 교환, 환불 등의 보상을 요구한 사실이 확인되는 경우 회원이 물품 또는 서비스 구매 시 결제 정보를 임의로 조작하여 정상 결제가격보다 못 미치는 금액을 결제한 경우 \n2. 회사는 전항에도 불구하고 명의도용 및 결제정보 도용, 저작권법, 정보통신망 이용촉진 및 정보보호 등에 관한 법률을 위반한 불법 통신 및 해킹, 악성프로그램의 배포 등의 경우에 즉시 영구이용정지를 할 수 있습니다. \n본 항에 따른 영구이용정지 시 제15조의 4 제1항에 의하여 적립된 에너지 및 기타 혜택 등도 모두 소멸되며, 회사는 이에 대해 별도로 보상하지 않습니다.\n\n제9조 (회원의 이메일 및 비밀번호에 대한 의무) \n1. 회원은 제2조 4, 5항에서 정하고 있는 이메일과 비밀번호에 관한 관리책임이 있으며 이를 소홀히 하여 발생한 모든 민형〮사상의 책임은 회사의 고의 또는 중과실이 없는 한 회원 자신에게 있습니다. 회원은 자신의 이메일 및 비밀번호를 제3자에게 알려주어서는 안되며, 회원이 이메일과 비밀번호를 제3자에게 알려줌으로써 발생한 손해에 대해서는 회사는 책임을 지지 않습니다. 이메일과 비밀번호가 회원의 의사에 반하여 유출되거나 기타의 사정으로 제3자가 사용하고 있음을 인지한 경우 즉시 비밀번호를 변경하여야 하고, 회사에 통보한 다음 회사의 안내를 따라야 합니다. 이를 소홀히 하여 발생한 모든 책임은 회원이 집니다. \n2. 회원은 자신의 이메일 및 비밀번호를 제3자에게 이용하게 해서는 안됩니다. \n3. 회원이 자신의 이메일 및 비밀번호를 도난 당하거나 제3자가 이용하고 있음을 인지한 경우에는 즉시 회사에 통보하고, 회사의 조치가 있는 경우에는 그에 따라야 합니다. \n4. 회원이 제3항에 따른 통지를 하지 않거나 회사의 조치에 응하지 아니하여 발생하는 모든 불이익에 대한 책임은 회원에게 있습니다. \n\n제10조 (회원의 의무) \n1. 회원은 관계법령, 이 약관의 규정, 이용안내 등 회사가 통지하는 사항을 준수하여야 하며, 기타 타인의 권익을 침해하거나, 회사 업무에 방해되는 행위를 하여서는 안됩니다. \n2. 회원은 서비스 이용과 관련하여 다음 각 호의 행위를 하여서는 안됩니다. 이용계약 신청 또는 이용정보 변경 시 허위내용의 등록 회사의 서비스에 게시된 정보 또는 회원이 서비스를 이용하여 얻은 정보를 회사의 사전 승낙 없이 영리 또는 비영리의 목적으로 복제, 출판, 방송 등에 사용하거나 제3자에게 제공하는 행위 회사가 게시한 정보의 허가 받지 않은 변경 회사가 제공하는 서비스 및 사이트를 이용하여 본인 또는 제3자를 홍보하거나, 홍보할 기회를 제공하는 행위 회사가 제공하는 서비스 및 사이트를 이용하여 본인을 홍보하거나 제3자의 홍보를 대행하는 등의 방법으로 금전을 수수하는 행위 서비스를 이용할 권리를 양도하고 이를 대가로 금전을 수수하는 행위 회사가 정한 정보 이외의 정보(컴퓨터 프로그램 등)의 송신 또는 게시 정보통신망법 등 관련 법령에 의하여 그 전송 또는 게시가 금지되는 정보(컴퓨터 프로그램 등)을 전송하거나 게시 및 관련 사이트를 링크하는 행위 회사 및 기타 제3자의 저작권 등 지적 재산권에 대한 침해 회사 및 기타 제3자의 명예를 손상시키거나 업무를 방해하는 행위 다른 회원의 아이디 및 비밀번호를 도용하여 서비스를 이용하는 행위 회사에서 물품이나 서비스를 이용하는 대가로 타인의 계좌번호, 신용카드 등의 결제정보를 허락 없이 이용하는 행위 정크메일, 스팸메일, 행운의 편지, 광고메일, 외설 또는 폭력적인 메시지, 동영상, 음성 등이 담긴 메일을 보내는 행위 청소년보호법에서 규정하는 청소년유해매체물을 게시(링크 포함)하는 행위 외설 또는 폭력적인 메시지, 동영상, 음성 기타 공공질서, 미풍양속에 반하는 정보, 문장, 도형, 동영상, 음성 등 사이트에 공개, 게시 또는 다른 이용자에게 유포하는 행위 회사의 직원이나 서비스의 관리자로 가장, 사칭하거나 타인의 명의를 도용하여 글을 게시하거나 메일을 발송하는 행위 컴퓨터 소프트웨어, 하드웨어, 전기통신 장비의 정상적인 가동을 방해, 파괴할 목적으로 고안된 소프트웨어 바이러스, 기타 다른 컴퓨터 코드, 파일, 프로그램을 포함하는 자료를 게시하거나 메일로 발송하는 행위 스토킹, 욕설, 채팅글 도배 등 다른 회원의 서비스 이용을 방해하는 행위 다른 회원의 개인정보를 그 동의 없이 수집, 저장, 공개, 유포하는 행위 불특정 다수의 회원을 대상으로 하여 광고 또는 선전물을 게시하거나 관련 사이트를 링크하는 행위 특정 재화 또는 서비스를 실제 구매 또는 사용하지 않았음에도 불구하고 마치 구매 또는 사용한 듯한 외관을 보이면서 회사의 사이트나 기타 매체를 통해 통상의 비판범위를 초과하여 관련 재화/서비스의 품질을 폄하하거나 회사를 비난하는 행위 근거 없이 회사의 명예나 신용을 훼손하는 행위 회원의 의무 불이행 현행 법령, 회사가 제공하는 서비스에 대한 약관 기타 서비스 이용에 관한 규정 및 회사 방침(사이트 공지사항 포함)에 위반하는 행위\n\n제11조 (회사의 의무) \n1. 회사는 관련법령과 이 약관이 금지하거나 공공질서, 미풍양속에 반하는 행위를 하지 않으며, 이 약관이 정하는 바에 따라 지속적이고 안정적으로 서비스를 제공하기 위하여 최선을 다하여야 합니다. \n2. 회사는 이용자가 안전하게 서비스를 이용할 수 있도록 이용자의 개인정보(신용정보 포함) 보호를 위한 보안 시스템을 갖추어야 하며 개인정보 취급방침을 공시하고 준수합니다. \n3. 회사는 관련법령이 정한 의무사항을 준수합니다. \n\n\n제12조 (회사가 제공하는 서비스에 대한 약관 및 이용조건) \n1. 회사는 통신판매중개자로서 회원 상호간의 거래를 위한 온라인 거래장소를 제공할 뿐이므로 물품을 판매하거나 구매하고자 하는 회원을 대리하지 않습니다. 또한, 회사의 어떠한 행위도 전문가 또는 의뢰인을 대리하는 행위로 간주되지 않습니다. \n2. 회사는 중개서비스를 통하여 이루어지는 회원간의 판매 및 구매와 관련하여 판매의사 또는 구매의사의 존부 및 진정성, 등록물품의 품질, 완전성, 안전성, 적법성 및 타인의 권리에 대한 비침해성, 회원이 입력하는 정보 및 그 정보를 통하여 링크된 URL에 게재된 자료의 진실성 등 일체에 대하여 보증하지 아니하며, 이와 관련한 일체의 위험과 책임은 해당 회원이 부담해야 합니다. \n3. 회사는 판매회원이 게재하는 서비스설명 등의 제반 정보를 통제하거나 제한하지 않습니다. 다만, 회사는 회원이 게재한 정보의 내용이 타인의 명예, 권리를 침해하거나 법규정을 위반한다고 판단하는 경우에는 이를 삭제할 수 있고, 판매취소, 판매중지, 기타 필요한 조치를 취할 수 있으며, 판매회원은 자신이 의도한 판매효과의 미흡 등을 이유로 회사에 어떠한 책임도 물을 수 없습니다. \n\n제13조 (서비스 이용시간) \n서비스의 이용은 회사의 업무상 또는 기술상 특별한 지장이 없는 한 연중무휴 1일 24시간을 원칙으로 합니다. 다만 정기점검 등의 필요로 회사가 정한 날 또는 시간은 제외됩니다. \n\n제14조 (서비스 제공의 중지) \n1. 회사는 다음 각 호에 해당하는 경우 서비스 제공을 중지할 수 있습니다. 서비스용 하드웨어, 소프트웨어 등의 보수, 정기 및 비상 점검의 경우 전기통신사업법에 규정된 기간통신사업자가 전기통신 서비스를 중지했을 경우 기타 불가항력적 사유가 있는 경우 \n2. 회사는 국가비상사태, 정전, 서비스 설비의 장애 또는 서비스 이용의 폭주 등으로 정상적인 서비스 이용에 지장이 있는 때에는 서비스의 전부 또는 일부를 제한하거나 정지할 수 있습니다. \n\n제15조 (사용 가능한 결제 수단) \n회원은 회사가 운영하는 사이트에서 이루어지는 물품 또는 서비스 거래에 대한 대금 지급방법을 다음 각 호의 하나로 할 수 있습니다. 1. 신용카드 2. 실시간 계좌이체 3. 휴대폰 결제 4. 에너지 5. 기타 회사가 지정하는 지급 수단 제15조의 2 (에너지 일반) 1. 회원은 에너지를 회사의 사이트에서 상품 구매, 서비스 이용 시 대금 지급 수단으로 사용할 수 있습니다. \n2. 회원이 에너지를 사용하는 경우 회원이 제15조의 3 제1항에 의하여 충전한 에너지와 회사가 제15조의 4 제1항에 의하여 적립 해준 에너지 중 회원이 충전한 에너지가 우선적으로 사용됩니다. \n3. 회원은 에너지를 다른 아이디 또는 제3자에게 양도할 수 없으며, 유상 또는 무상으로 거래할 수 없습니다. \n4. 회사는 회원이 회사가 승인하지 않은 방법으로 에너지를 획득하거나 부정한 목적이나 용도로 에너지를 사용하는 경우 회원의 에너지의 사용을 제한하거나 에너지를 사용한 구매신청을 취소하거나 회원 자격을 정지 또는 박탈할 수 있습니다. 제15조의 3 (충전 에너지) 1. 회원은 회사가 정하는 방법에 의하여 유상 결제함으로써 에너지를 충전할 수 있습니다. 2. 회원은 제1항에 의하여 충전한 에너지(이하 “충전 에너지”라 합니다)의 미사용 잔액에 대하여 언제든지 환급을 요구할 수 있으며, 회사가 정하는 방법 및 절차에 의하여 환급 받을 수 있습니다. 3. 회원 탈퇴 시 충전 에너지 중 미사용한 에너지는 환급을 요구할 수 있으며, 회사가 정하는 방법 및 절차에 의하여 환급 받을 수 있습니다. 4. 회원이 제15조에 의한 결제를 취소하는 경우 환급금은 충전 에너지로 지급합니다. 취소에 따른 위약금이 있는 경우 회원의 에너지를 차감하는 방법으로 지급되도록 합니다. 제15조의 4 (적립 에너지) 1. 회사는 회원의 구매활동, 서비스 이용, 이벤트 참여 등에 따라 회원에게 일정한 에너지를 무상으로 적립해 줄 수 있습니다. 2. 회사는 제1항에 의한 에너지의 적립기준, 적립제한, 사용방법, 사용기준 및 사용제한에 관한 사항(이하 “에너지 적립조건”이라 합니다)에 정하여 서비스 화면에 게시하거나 회원에게 통지합니다. 회사의 정책에 따라 에너지 적립조건은 사전 통지 없이 변경될 수 있습니다. 3. 회사가 제1항에 의하여 적립해 준 에너지(이하 “적립 에너지”라 합니다)의 유효기간은 적립된 날로부터 1년이며, 유효기간 동안 사용하지 않을 경우 자동적으로 소멸됩니다. 5. 적립 에너지를 사용하는 경우 유효기간 종료일이 먼저 도래하는 순서로 사용됩니다. 4. 적립 에너지는 어떠한 경우에도 현금으로 환급 또는 전환될 수 없습니다. 5. 제15조의 3 제4항에도 불구하고 회원이 적립 에너지로 지급한 결제를 취소하는 경우 적립 에너지를 환급합니다. 단, 해당 적립 에너지의 유효기간이 만료된 경우에는 환급되지 아니합니다. 6. 상품구매, 서비스 이용, 결제 등이 취소되는 경우 그에 따라 회원에게 적립된 에너지는 취소되어 효력을 상실합니다. 7. 회원 탈퇴 시 중 미사용한 적립 에너지는 즉시 소멸되며, 탈퇴 후 재가입하더라도 복구되지 아니합니다. 제16조 (구매신청) 1. 회원은 이 약관 및 회사가 정한 규정에 따라 아래와 같이 판매회원의 물품 또는 서비스에 대한 구매를 신청합니다. 회원정보(성명, 연락처) 입력 물품 또는 서비스 선택사항 입력 판매회원으로부터 배송받는 물품의 경우 배송지 정보(성명, 연락처, 주소) 입력 결제방법 선택 결제방법에 따른 결제 정보 개인정보 제3자 제공 및 이용 조건에 동의한다는 표시 2. 결제와 관련하여 회원이 입력한 정보 및 그 정보와 관련하여 발생한 책임과 불이익은 전적으로 회원이 부담하여야 합니다. \n\n제16조 (구매신청) \n1. 회원은 이 약관 및 회사가 정한 규정에 따라 아래와 같이 판매회원의 물품 또는 서비스에 대한 구매를 신청합니다. 회원정보(성명, 연락처) 입력 물품 또는 서비스 선택사항 입력 판매회원으로부터 배송받는 물품의 경우 배송지 정보(성명, 연락처, 주소) 입력 결제방법 선택 결제방법에 따른 결제 정보 개인정보 제3자 제공 및 이용 조건에 동의한다는 표시 \n2. 결제와 관련하여 회원이 입력한 정보 및 그 정보와 관련하여 발생한 책임과 불이익은 전적으로 회원이 부담하여야 합니다. \n\n제17조 (정보의 제공) \n회사는 서비스 이용에 관한 다양한 정보를 이메일, 우편, SMS 등의 방법으로 회원에게 제공할 수 있으며 회원은 수신을 거부할 수 있습니다. 단, 회사는 서비스 이용에 필수적으로 요구되는 정보(관련 규정 및 정책의 변경 등)나 유익한 혜택(할인 쿠폰 등)에 대해서는 회원의 수신거부의사와 무관하게 이를 제공할 수 있습니다. \n\n제18조 (배송)\n중개서비스를 이용하여 체결된 거래 중 판매회원이 구매회원에게 물품 등을 배송하여야 하는 경우, 모든 배송은 회사가 지정한 택배 서비스에 의하고, 상품에 따라 배송비가 부과될 수 있으며, 회원이 배송비를 부과해야 할 경우 제품 상세 페이지에 미리 고지합니다. 배송 절차는 “주문완료” 후 즉시 진행되며 세부 내용은 다음과 같습니다. \n1. 판매회원은 대한민국 내의 주소지로의 배송만 제공합니다.\n2. 판매회원은 기본적으로 택배 서비스를 이용하며, 일반적으로 주문일로부터 3~5일 소요, 산간도서지역일 경우 2~3일 추가적으로 소요되며, 제품과 해외물류센터, 기상, 항공운항 등의 사정에 따라 변동될 수 있습니다. \n3. 대한민국의 공휴일 및 기타 휴무일에는 배송과정이 진행되지 않습니다. 배송 소요기간은 공휴일을 포함하지 않습니다. \n4. 폭설폭우나 천재지변 등 불가항력적인 사유 발생 시 그 기간은 배송 소요기간에서 제외됩니다. \n5. 판매회원이 품절 등의 사유로 회원이 구매 신청한 물품을 제공할 수 없을 때에는, 회원으로부터 대금을 받은 날로부터 3 영업일 이내에 환불에 필요한 조치를 취하고, 그 사유를 회원에게 통지합니다. \n6. 구매회원이 기재한 배송지로의 물품 배송이 불가능할 경우에는 판매회원은 구매회원에게 통지하고 배송 방법을 변경하거나 추가비용을 부과할 수 있습니다. \n\n제19조 (반품/환불/취소)\n1. 구매회원이 반품, 환불, 취소 요청을 하는 경우 관련 법령 및 회사에서 제공하는 분쟁해결 기준에 부합하는 한 판매회원은 이를 승인하여야 합니다. 적법한 환불 등 요청에도 불구하고 판매회원이 구매회원의 요청시로부터 24시간 내에 그 요청을 승인하지 않는 경우 해당 거래는 자동적으로 취소되고 구매대금은 구매회원에게 환불됩니다. 신용카드결제 및 휴대폰결제는 신용카드사 및 이동통신사의 환불기준에 의거하여 시일이 소요될 수 있습니다. 단, 구매회원은 판매회원의 반품, 환불, 취소의 요청에 대한 승인이 있기 전까지 그 의사를 철회할 수 있습니다. \n2. 회사가 운영하는 사이트에서 회원이 구매 가능한 상품은 물품과 일정이 있거나, 일정이 정하여 지지 않은 여행상품 또는 액티비티 상품으로 나누어지며, 이 중 회사가 고지하는 물품에 대한 분쟁해결 기준은 다음과 같습니다. (1) 물품에 대한 주문 취소는 회원님이 PG사 결제 후 배송시작이 되지 않은 상태에서만 가능하며, 이 경우 고객센터 및 사이트를 통해 취소 신청할 수 있습니다. 신청된 취소의 경우 신청 후 근무일수 기준 +1일 이내에 회사가 취소합니다. 배송시작 이후에는 주문 취소는 불가능 합니다. (2) 회사가 운영하는 사이트에서 판매회원이 판매하는 물품은 물품 특성에 따라 단순 고객 변심으로 인한 반품이 불가능할 수 있습니다. (3) 판매회원이 품절 등의 사유로 회원이 구매 신청한 물품을 제공할 수 없을 때에는, 회원으로부터 대금을 받은 날로부터 3 영업일 이내에 환불에 필요한 조치를 취하고, 그 사유를 회원에게 통지합니다. (4) 판매회원은 이미 배송된 물품일지라도 다음과 같은 경우에는 환불 조치합니다. 배송된 물품 등이 주문내용과 상이할 경우 배송된 물품 등이 파손, 손상되었거나 오염되었을 경우(단, 회원의 책임 있는 사유로 상품 등이 훼손된 경우는 제외) (5) 고객은 반품 의사를 “물품 수령 후 7 영업일 이내” (전자상거래 등에서의 소비자보호에 관한 법률 제17조 제1항)에 회사에게 밝혀야 하고, 반품 신청일 기준으로 7 영업일 이내 상품이 도착해야 합니다. 반품 신청은 이메일(cs@frientrip.com)을 통해서 가능하며, 회사의 정식 절차에 따라 반품 신청을 하지 않을 경우 원활한 처리가 이루어지지 않을 수 있습니다. 모든 환불은 바코드와 태그, 가격표를 떼지 않은 배송 초기 수령된 상태와 동일한 미착용의 상품만 가능합니다. (6) 환불은 반품하는 상품과 고객센터 이메일(cs@frientrip.com)을 통해 반품 내용 확인 후 처리해 드립니다. 단, 다음의 경우에는 결제 대금을 환불 처리할 수 없습니다. 이용자에게 책임 있는 사유로 물품 등이 분실 또는 훼손된 경우 수령일로부터 7 영업일 이내 반품 의사가 전달되지 않은 경우 이용자의 착용에 의하여 물품 등의 가치가 감소한 경우 시간의 경과에 의하여 재판매가 곤란할 정도로 물품 등의 가치가 감소한 경우 바코드와 태그, 가격표 등이 초기 수령된 상태와 상이한 경우 상품에 하자가 없는 액세서리 및 패션잡화의 경우 (7) 카드 결제에 대한 환불인 경우, 회사가 결제대행사에 요청하는 카드의 결제 취소는 즉시 접수되나, 카드사 사정에 따라 7~10영업일 정도의 취소기간이 소요될 수 있습니다. 카드대금 결제일에 따라 청구작업기간이 다를 수 있으며, 자세한 내용은 해당 카드사에서 확인해야 합니다. (단, 주말, 공휴일은 제외). (8) 환불/교환 사유에 따른 반품 배송비용 부담 구분은 다음과 같습니다. 제품의 하자에 의한 환불: 회사 부담 잘못된 배송에 의한 환불: 회사 부담 옵션 및 색상 등을 포함한 고객변심에 의한 환불/교환: 회원 부담 3. 프립 오프렌즈 상품에 대한 환불/취소 규정은 다음과 같습니다. 구매회원이 판매회원의 상품에 대한 환불 의사를 표시하는 경우, 결제대금 보호서비스에 따라 구매회원이 결제한 금액을 회사가 환불해줍니다. 다만 정규 클래스와 같은 상품의 거래가 성사된 후 환불 요청이 들어오는 경우, 회사가 미리 정한 서비스 이용료에 따라 해당 금액은 공제될 수 있습니다. 4. 회사가 운영하는 사이트에서 이루어지는 거래 중, 물품 외의 프립 상품오프렌즈 상품에 대한 회사가 제시하는 분쟁해결 기준은 각 판매 페이지 환불규정에 표기되어 있으며, 판매회원의 환불규정에 따라 변경될 수 있습니다. 회사는 통신판매중개자로 원칙적으로 회원 간 거래에 대하여 환불 의무가 없으며, 당사자간 원활한 분쟁 해결을 위하여 기준을 제시할 뿐이므로 회사는 이에 대한 책임을 보증하지 않습니다. 회원 사이에 분쟁이 발생한 경우 관련 당사자간 해결이 분쟁해결기준보다 앞서므로, 판매회원의 판단 하에 환불규정 기준 이상으로 참가자에게 환불을 할 수 있습니다. \n\n제20조 (저작권 등의 귀속 및 이용제한)\n1. 회사가 작성한 저작물에 대한 저작권, 특허권, 상표권, 기타 지적재산권은 회사에 귀속됩니다.\n2. 회원은 서비스를 이용함으로써 얻은 정보를 회사의 사전 승낙 없이 복제, 송신, 출판, 배포, 방송 등 기타 방법에 의하여 이용하거나 제3자에게 이용하게 하여서는 안됩니다. \n3. 회원이 촬영한 사진, 영상, 글 등(이하 ‘콘텐츠’라 합니다)에 대한 저작권은 원칙적으로 회원에게 귀속됩니다. 회원은 콘텐츠를 프렌트립 및 오렌지라이프에 제공할 수 있으며 콘텐츠 제공 시점부터 다음과 같은 내용의 이용권한을 부여합니다. 1) 이용 목적 : 서비스 홍보 2) 이용 권한 : 복제, 배포, 전시, 수정, 공연, 파생저작물 제작이 가능한, 취소불가능한, 비독점적인, 로열티가 없는, 완납된, 전세계적인 라이선스 권한 \n\n제21조 (개인정보보호)\n1. 회사는 회원의 개인정보를 보호하기 위하여 정보통신망 이용촉진 및 정보보호 등에 관한 법률 등 관계 법령에서 정하는 바를 준수합니다. \n2. 회사는 회원의 개인정보를 보호하기 위하여 개인정보 취급방침을 제정, 서비스 초기화면에 게시합니다. 다만, 개인정보 취급방침의 구체적인 내용은 연결화면을 통하여 볼 수 있습니다.\n3. 회사는 이용계약을 위하여 회원이 제공한 정보를 회사의 서비스 운영을 위한 목적 이외의 용도로 사용하거나 회원의 동의 없이 제3자에게 제공하지 않습니다. 단, 다음 각 호의 경우에는 예외로 합니다. - 법령에 근거하여 회원정보의 이용과 제3자에 대한 정보제공이 허용되는 경우 - 물품 배송업무 등 거래 이행에 필요한 최소한의 회원정보(성명, 주소, 연락처 등)를 배송업체에 알려주는 경우 - 기타 회사의 약관 및 정책에 따라 회원의 동의를 구한 경우 - 회사는 개인정보 취급방침에 따라 회원의 개인정보를 최대한 보호하기 위하여 노력합니다. \n\n제22조 (면책 조항)\n1. 회사는 천재지변 또는 이에 준하는 불가항력으로 인하여 회원에게 서비스를 제공할 수 없는 경우에는 서비스 제공에 관한 책임이 면제됩니다. \n2. 회사는 회원의 귀책사유로 인한 서비스 이용의 장애에 대하여 책임을 지지 않습니다. \n3. 회사는 회원이 서비스를 이용하여 기대하는 수익을 상실한 것에 대하여 책임을 지지 않으며, 그 밖의 서비스를 통하여 얻은 자료로 인한 손해에 관하여 책임을 지지 않습니다. \n4. 회사는 회원이 게재한 정보, 자료, 사실의 신뢰도, 정확성 등 내용에 관해서는 책임을 지지 않습니다.\n5. 회사는 회원간 또는 회원과 제3자 상호간에 서비스를 매개로 하여 거래 등을 한 경우에는 책임을 지지 않습니다. \n6. 회원이 발송한 메일 내용에 대한 법적인 책임은 회원에게 있습니다. \n7. 회사가 통신판매중개자로서 회원들에게 제공하는 서비스는 온라인 거래장소(marketplace)를 제공하거나 안전한 결제 수단을 제공하고 기타 부가정보를 제공함에 그치는 것이므로 중개서비스를 통하여 이루어지는 회원 상호간의 거래와 관련된 서비스 판매진행의 관리, 의뢰인에 대한 거래이행, 서비스발송, 청약철회 또는 반품, 취소요청으로 인한 분쟁해결 등 필요한 사후처리는 거래당사자인 회원들이 직접 수행하여야 합니다. 회사는 회사의 고의 또는 중과실이 없는 한 이에 대하여 관여하지 않으며 어떠한 책임도 부담하지 않습니다. \n8. 단, 회사는 전문가와 구매자간 분쟁이 발발했음을 양 당사자 중 한 명 이상으로부터 통보를 받을 경우 전자상거래법에 의거 원만한 분쟁해결 지원을 위해 거래 및 양자의 사이트상 계정에 개입 혹은 기타 분쟁해결에 필요하다고 판단되는 모든 조치(거래금액 동결, 계정정지 등)를 취할 수 있으며, 이 조치는 분쟁이 해결되는 시점까지 지속될 수 있습니다. 단, 회사에서 회원간 자체적으로 분쟁 해결이 어렵다고 판단되는 경우 회사는 하기의 외부기관들에 분쟁건을 이관할 수 있으며, 이관된 시점 이후부터는 분쟁조정권고 등 이관된 기관의 의견을 신뢰하며 이를 기준으로 분쟁관련 업무를 처리합니다. - 대한상사중재원 ( http://www.kcab.or.kr/intro.jsp ) - 한국소비자원 ( http://www.kca.go.kr/ ) - 한국공정거래조정원 ( http://www.kofair.or.kr/goMain.do ) - 정보통신산업진흥원 전자문서·전자거래분쟁조정위원회 ( http://www.ecmc.or.kr ) - 한국콘텐츠진흥원 콘텐츠분쟁조정위원회 (https://www.kcdrc.kr/) \n\n제23조 (분쟁 해결) \n1. 회사는 이용자가 제기하는 정당한 의견이나 불만을 반영하고 그 피해를 보상처리 하기 위해서 피해보상처리 기구를 설치, 운영합니다. \n2. 회사는 이용자로부터 제출되는 불만사항 및 의견을 지체 없이 처리하고자 최선을 다하여야 합니다. 다만 신속한 처리가 곤란한 경우에는 이용자에게 그 사유와 처리 일정을 통보합니다. \n\n제24조 (준거법 및 관할법원) 1. 이 약관의 해석 및 회사와 회원간의 분쟁에 대하여는 대한민국의 법령을 적용합니다. 2. 서비스 이용 중 발생한 회원과 회사간의 소송은 민사소송법에 의한 관할법원에 제소합니다.\n\n<부칙> 제1조 (시행일자) 2019년 11월 4일부터 시행됩니다.\n\n㈜프렌트립 ㈜오렌지라이프생명보험\"",
  "S0031" : "개인정보 수집 및 이용 안내 \n\n㈜프렌트립(이하 ‘회사’라 한다)은 개인정보 보호법 제30조에 따라 정보주체의 개인정보를 보호하고 이와 관련한 고충을 신속하고 원활하게 처리할 수 있도록 하기 위하여 다음과 같이 개인정보 처리방침을 수립·공개합니다.\n\n제1조(개인정보의 처리목적)\n회사는 다음의 목적을 위하여 개인정보를 처리합니다. 처리하고 있는 개인정보는 다음의 목적 이외의 용도로는 이용되지 않으며, 이용 목적이 변경되는 경우에는 개인정보 보호법 제18조에 따라 별도의 동의를 받는 등 필요한 조치를 이행할 예정입니다.\n1. 오프렌즈 회원 가입 및 관리\n회원 가입의사 확인, 회원제 서비스 제공에 따른 본인 식별·인증, 회원자격 유지․관리, 제한적 본인확인제 시행에 따른 본인확인, 서비스 부정이용 방지, 만 14세미만 아동의 개인정보 처리시 법정대리인의 동의여부 확인, 각종 고지·통지, 고충처리 등을 목적으로 개인정보를 처리합니다.\n2. 재화 또는 서비스 제공\n물품배송, 서비스 제공, 계약서·청구서 발송, 콘텐츠 제공, 맞춤서비스 제공, 본인인증, 연령인증, 요금결제·정산, 채권추심 등을 목적으로 개인정보를 처리합니다.\n3. 고충처리\n민원인의 신원 확인, 민원사항 확인, 사실조사를 위한 연락․통지, 처리결과 통보등의 목적으로 개인정보를 처리합니다.\n\n제2조(개인정보의 처리 및 보유기간)\n① 회사는 법령에 따른 개인정보 보유·이용기간 또는 정보주체로부터 개인정보를 수집시에 동의받은 개인정보 보유·이용기간 내에서 개인정보를 처리·보유합니다.\n② 각각의 개인정보 처리 및 보유 기간은 다음과 같습니다.\n1. 오프렌즈 회원 가입 및 관리 : 오프렌즈 탈퇴시까지. 다만, 다음의 사유에 해당하는 경우에는 해당 사유 종료시까지\n1) 관계 법령 위반에 따른 수사․조사 등이 진행중인 경우에는 해당 수사·조사 종료시까지\n2) 오프렌즈 이용에 따른 채권·채무관계 잔존시에는 해당 채권·채무관계 정산시까지\n2. 재화 또는 서비스 제공 : 재화·서비스 공급완료 및 요금결제·정산 완료시까지. 다만, 다음의 사유에 해당하는 경우에는 해당 기간 종료시까지\n1) 「전자상거래 등에서의 소비자 보호에 관한 법률」에 따른 표시·광고, 계약내용 및 이행 등 거래에 관한 기록\n- 표시․광고에 관한 기록 : 6월\n- 계약 또는 청약철회, 대금결제, 재화 등의 공급기록 : 5년\n- 소비자 불만 또는 분쟁처리에 관한 기록 : 3년\n2) 「통신비밀보호법」제41조에 따른 통신사실확인자료 보관\n- 가입자 전기통신일시, 개시·종료시간, 상대방 가입자번호, 사용도수, 발신기지국 위치추적자료 : 1년\n- 컴퓨터통신, 인터넷 로그기록자료, 접속지 추적자료 : 3개월\n\n제3조(개인정보의 제3자 제공)\n① 회사는 정보주체의 개인정보를 제1조(개인정보의 처리 목적)에서 명시한 범위 내에서만 처리하며, 정보주체의 동의, 법률의 특별한 규정 등 개인정보 보호법 제17조에 해당하는 경우에만 개인정보를 제3자에게 제공합니다.\n② 회사는 다음과 같이 개인정보를 제3자에게 제공하고 있습니다.\n1. 제공항목 : 이름, 생년월일, 주소, 휴대전화번호, 이메일 주소, 재무설계컨설팅을 위한 자산정보 및 부가정보(결혼여부, 가구단계, 직업, 월수입 등)\n2. 제공대상, 목적 및 이용기간\n- 상품 서비스 안내를 목적으로 한 보험회사 제공\n제공받는 자: 오렌지라이프생명보험, 오렌지라이프 모집수탁자(보험설계사, 법인대리점 등 포함), 오렌지라이프 업무수탁자(카카오톡 알림 등 안내수단 제공 업체 포함)\n제공목적: 상품·서비스 소개 및 판매, 사은 ·판촉행사 안내, 시장조사, 재무설계컨설팅, 재정 컨설턴트 job 소개\n보유·이용 기간: 정보주체가 직접 선택한 기간 또는 정보주체의 동의철회시까지\n- 본인확인을 위한 본인확인기관(통신사)\n제공받는자: SK텔레콤, KT, LG U+\n제공목적: 본인확인\n보유·이용 기간: 제공 목적 달성 후 파기\n- 상품 서비스 결제를 위한 결제대행기관\n제공받는자: 나이스페이, 다날, 아임포트\n제공목적: 상품 서비스 결제대행\n보유·이용 기간: 법령에 명시된 보관기간(5년)까지\n- 오프렌즈 서비스 제공을 위한 판매자(호스트)\n제공받는자: 오프렌즈에 등록된 판매자(호스트)\n제공목적: 오프렌즈 회원이 구매한 서비스 제공\n보유·이용 기간: 동의서에 명시된 보관기간(6개월)까지\n\n제4조(정보주체의 권리․의무 및 행사방법)\n① 정보주체는 회사에 대해 언제든지 다음 각 호의 개인정보 보호 관련 권리를 행사할 수 있습니다.\n1. 개인정보 열람요구\n2. 오류 등이 있을 경우 정정 요구\n3. 삭제요구\n4. 처리정지 요구\n② 제1항에 따른 권리 행사는 회사에 대해 서면, 전화, 전자우편, 모사전송(FAX)\n등을 통하여 하실 수 있으며 회사는 이에 대해 지체없이 조치하겠습니다.\n③ 정보주체가 개인정보의 오류 등에 대한 정정 또는 삭제를 요구한 경우에는 회사는 정정 또는 삭제를 완료할 때까지 당해 개인정보를 이용하거나 제공하지 않습니다.\n④ 제1항에 따른 권리 행사는 정보주체의 법정대리인이나 위임을 받은 자 등 대리인을 통하여 하실 수 있습니다. 이 경우 개인정보 보호법 시행규칙 별지 제11호 서식에 따른 위임장을 제출하셔야 합니다.\n⑤ 정보주체는 개인정보 보호법 등 관계법령을 위반하여 회사가 처리하고 있는 정보주체 본인이나 타인의 개인정보 및 사생활을 침해하여서는 아니됩니다.\n\n제5조(처리하는 개인정보 항목)\n회사는 다음의 개인정보 항목을 처리하고 있습니다.\n1. 오프렌즈 회원 가입 및 관리\n필수항목 : 아이디, 이메일 주소\n선택항목 : 생년월일, 성별, 관심분야\n2. 재화 또는 서비스 제공\n필수항목 : 호스트명(닉네임), 이름, 아이디, 이메일 주소, 사업자등록번호, FC코드, 휴대전화 번호, 은행계좌(은행명, 예금주, 계좌번호)\n선택항목 : 프로필 사진\n3. 인터넷 서비스 이용과정에서 아래 개인정보 항목이 자동으로 생성되어 수집될 수 있습니다.\nIP주소, 쿠키, MAC주소, 서비스 이용기록, 방문기록, 불량 이용기록 등\n\n제6조(개인정보의 파기)\n① 회사는 개인정보 보유기간의 경과, 처리목적 달성 등 개인정보가 불필요하게 되었을 때에는 지체없이 해당 개인정보를 파기합니다.\n② 정보주체로부터 동의받은 개인정보 보유기간이 경과하거나 처리목적이 달성되었음에도 불구하고 다른 법령에 따라 개인정보를 계속 보존하여야 하는 경우에는, 해당 개인정보를 별도의 데이터베이스(DB)로 옮기거나 보관장소를 달리하여 보존합니다.\n③ 개인정보 파기의 절차 및 방법은 다음과 같습니다.\n1. 파기절차\n회사는 파기 사유가 발생한 개인정보를 선정하고, 회사의 개인정보 보호책임자의 승인을 받아 개인정보를 파기합니다.\n2. 파기방법\n회사는 전자적 파일 형태로 기록․저장된 개인정보는 기록을 재생할 수 없도록 로우레밸포멧(Low Level Format) 등의 방법을 이용하여 파기하며, 종이 문서에 기록·저장된 개인정보는 분쇄기로 분쇄하거나 소각하여 파기합니다\n\n제7조(개인정보의 안전성 확보조치)\n회사는 개인정보의 안전성 확보를 위해 다음과 같은 조치를 취하고 있습니다.\n1. 관리적 조치 : 내부관리계획 수립·시행, 정기적 직원 교육 등\n2. 기술적 조치 : 개인정보처리시스템 등의 접근권한 관리, 접근통제시스템 설치, 고유식별정보 등의 암호화, 보안프로그램 설치\n3. 물리적 조치 : 전산실, 자료보관실 등의 접근통제\n\n제8조(개인정보 자동 수집 장치의 설치∙운영 및 거부에 관한 사항)\n① 회사는 이용자에게 개별적인 맞춤서비스를 제공하기 위해 이용정보를 저장하고 수시로 불러오는 ‘쿠키(cookie)’를 사용합니다.\n② 쿠키는 웹사이트를 운영하는데 이용되는 서버(http)가 이용자의 컴퓨터 브라우저에게 보내는 소량의 정보이며 이용자들의 PC 컴퓨터내의 하드디스크에 저장되기도 합니다.\n가.\t쿠키의 사용목적: 이용자가 방문한 각 서비스와 웹 사이트들에 대한 방문 및 이용형태, 인기 검색어, 보안접속 여부, 등을 파악하여 이용자에게 최적화된 정보 제공을 위해 사용됩니다.\n나. 쿠키의 설치∙운영 및 거부 : 웹브라우저 상단의 도구>인터넷 옵션>개인정보 메뉴의 옵션 설정을 통해 쿠키 저장을 거부 할 수 있습니다.\n다. 쿠키 저장을 거부할 경우 맞춤형 서비스 이용에 어려움이 발생할 수 있습니다.\n\n제9조(개인정보 보호책임자)\n① 회사는 개인정보 처리에 관한 업무를 총괄해서 책임지고, 개인정보 처리와 관련한 정보주체의 불만처리 및 피해구제 등을 위하여 아래와 같이 개인정보 보호책임자를 지정하고 있습니다.\n\n▶ 개인정보 보호책임자\n성명 : 양대현\n직책 : 팀장\n연락처 : 070-7169-1466\n이메일 : daehyeon.yang@friendtrip.com\n팩스번호 : 02-6280-3651\n※ 개인정보 보호 담당부서로 연결됩니다.\n\n▶ 개인정보 보호 담당부서\n부서명 : 개발팀\n담당자 : 양대현\n연락처 : 070-7169-1466\n이메일 : daehyeon.yang@friendtrip.com\n팩스번호 : 02-6280-3651\n\n② 정보주체께서는 회사의 서비스(또는 사업)을 이용하시면서 발생한 모든 개인정보 보호 관련 문의, 불만처리, 피해구제 등에 관한 사항을 개인정보 보호책임자 및 담당부서로 문의하실 수 있습니다. 회사는 정보주체의 문의에 대해 지체없이 답변 및 처리해드릴 것입니다.\n\n제10조(개인정보 열람청구)\n정보주체는 개인정보 보호법 제35조에 따른 개인정보의 열람 청구를 아래의 부서에 할 수 있습니다. 회사는 정보주체의 개인정보 열람청구가 신속하게 처리되도록 노력하겠습니다.\n\n▶ 개인정보 열람청구 접수․처리 부서\n부서명 : CX팀\n담당자 : 고한나\n연락처 : 070-5175-6637\n이메일 : hanna.ko@friendtrip.com\n팩스번호 : 02-6280-3651\n\n제11조(권익침해 구제방법)\n정보주체는 아래의 기관에 대해 개인정보 침해에 대한 피해구제, 상담 등을 문의하실 수 있습니다.\n\n<아래의 기관은 회사와는 별개의 기관으로서, 회사의 자체적인 개인정보 불만처리, 피해구제 결과에 만족하지 못하시거나 보다 자세한 도움이 필요하시면 문의하여 주시기 바랍니다>\n\n▶ 개인정보 침해신고센터 (한국인터넷진흥원 운영)\n- 소관업무 : 개인정보 침해사실 신고, 상담 신청\n- 홈페이지 : privacy.kisa.or.kr\n- 전화 : (국번없이) 118\n- 주소 : (58324) 전남 나주시 진흥길 9(빛가람동 301-2) 3층 개인정보침해신고센터\n\n▶ 개인정보 분쟁조정위원회\n- 소관업무 : 개인정보 분쟁조정신청, 집단분쟁조정 (민사적 해결)\n- 홈페이지 : www.kopico.go.kr\n- 전화 : (국번없이) 1833-6972\n- 주소 : (03171)서울특별시 종로구 세종대로 209 정부서울청사 4층\n▶ 대검찰청 사이버범죄수사단 : 02-3480-3573 (www.spo.go.kr)\n▶ 경찰청 사이버안전국 : 182 (http://cyberbureau.police.go.kr)\n\n제12조(개인정보 처리방침 변경)\n이 개인정보 처리방침은 2019. 11. 25부터 적용됩니다.",
  "S0032" : "&#39;프렌즈&#39; 회원으로 등록하셔서 강좌쿠폰(결제시 15% 할인), 이벤트 참여, 경품지급 등 다양한 혜택을 누려보세요.",
  "S0033" : "지금 페이지를 나가면 변경사항이 저장되지 않습니다. 페이지를 나가시겠습니까?",
  "S0034" : "<desc>오프렌즈 공동 운영사인 주식회사 오렌지라이프생명보험은 \n「개인정보보호법」, 「신용정보의 이용 및 보호에 관한 법률」, 「정보통신망 이용촉진 및 정보보호 등에 관한 법률」에 따라 귀하의 개인(신용)정보를 다음과 같이 수집· 이용하고자 합니다.</desc>\n\n\n<strong>- 목적</strong>\n상품 ·서비스 소개 및 판매, 사은 ·판촉행사 안내, 시장조사, 재무설계컨설팅, 재정 컨설턴트 job소개\n\n<strong>- 내용</strong>\n개인식별정보(성명, 생년월일, 주소, 휴대전화번호, 이메일주소), 재무설계컨설팅을 위한 자산정보 및 부가정보(결혼여부, 가구단계, 직업, 월수입 등)\n\n<strong>- 보유 ·이용기간</strong>\n<font>직접 기입하신 기간</font>",
  "S0035" : "<desc>오프렌즈 공동 운영사인 주식회사 오렌지라이프생명보험은 \n「개인정보보호법」, 「신용정보의 이용 및 보호에 관한 법률」, 「정보통신망 이용촉진 및 정보보호 등에 관한 법률」에 따라 귀하의 개인(신용)정보를 다음과 같이 제공하고자 합니다.</desc>\n\n\n<strong>- 제공받는 자</strong>\n<font>모집수탁자</font> : 당사와 보험모집 위탁계약을 체결한 자(보험설계사, 법인대리점 등 포함)\n<font>업무수탁자</font> : 당사와 업무위탁 계약을 체결한 자(우편물 발송업체 등 포함)\n<font>제휴사</font> : 해당사항 없음\n\n<strong>- 목적</strong>\n<font>상품·서비스 소개 및 판매, 사은·판촉행사 안내, 시장조사, 재무설계컨설팅, 재정 컨설턴트 job소개</font>\n\n<strong>- 내용</strong>\n[개인(신용)정보의 수집·이용에 관한 사항]의 정보내용\n\n<strong>- 보유·이용기간</strong>\n직접 기입하신 기간\n\n<desc>※ 상기 내용은 변동 될 수 있으며, 각 제공 대상기관 및 이용목적의 구체적인 정보는 오렌지라이프 홈페이지(www.orangfelife.co.kr)에서 확인 할 수 있습니다.\n※ 본 동의는 선택사항이며, 동의하시더라도 오렌지라이프 홈페이지 및 콜센터(1588-5005)를 통해 언제든지 철회하실 수 있습니다.</desc>",
  "S0036" : "마케팅 동의 후 이벤트 참여가 가능합니다.",
  "S0037" : "이벤트 참여가 완료되었습니다.\n 내 프로필 '내 라이프'에서 내용을 확인해 주세요.",
  "S0038" : "<h4 class=\"cancel-completed-title\">신청취소 완료</h4><div class=\"cancel-completed-desc\">환불 소요일은 다음과 같습니다.\n신용카드:카드사에 따라 2~5일 소요\n무통장입금/계좌이체/핸드폰결제: 은행 영업일 2~3일 소요\n토스: 즉시\n* 휴대폰 결제의 경우, 익일 취소는 입력하신 계좌번호로 환불 처리가 됩니다.\n환불 문의: 02-512-3662</div>",
  "S0039" : "<span class=\"payment-cancel-desc\">신청 취소시 전액 환불 접수되며 신청 내역을 되돌릴 수 없습니다.\n라이프 신청을 취소하시겠습니까?</span>",
  "S0040" : "페이지를 찾을 수 없습니다.",
  "S0041" : "올바른 이메일 형식이 아닙니다.",
  "S0042" : "비밀번호를 재설정하려는 계정(이메일)을 입력해 주세요.",
  "S1001" : "좋아요를 한 라이프가 없습니다.",
  "S1002" : "보유한 쿠폰이 없습니다.",
  "S1003" : "비밀번호는 대문자, 소문자, 숫자, 특수문자(!@#$%^&*) 중 2가지 이상의 조합으로 10자 이상이어야 합니다.",
  "S1004" : "이용 약관에 동의해 주세요.",
  "S1005" : "로그인에 실패 했습니다. 잠시후 다시 시도해 주세요.",
  "S1006" : "알 수 없는 오류가 발생했습니다.",
  "S1007" : "이메일 혹은 비밀번호가 틀립니다.",
  "S1008" : "기존의 비밀번호와 일치합니다.",
  "S1009" : "비밀번호가 일치하지 않습니다.",
  "S1010" : "© Frientrip. all rights reserved.",
  "S1011" : "이메일 주소를 입력해 주세요.",
  "S1012" : "쿠폰 적용을 위한 마케팅 동의를 진행해주세요.",
  "S1013" : "프로필에서 \"슈퍼프렌즈 등업\"하면 할인 쿠폰 및 이벤트 혜택을 누리실 수 있어요!",
  "S1014" : "먼저 입력하신 비밀번호와 일치하지 않습니다.",
  "S1015" : "가입하지 않은 이메일 주소입니다.",
  "S1016" : "[필수] 서비스 이용약관",
  "S1017" : "[필수] 개인정보 수집 · 이용 동의",
  "S1018" : "* 만 14세 이상 회원만 이용가능합니다.",
  "S1019" : "비밀번호를 입력해 주세요.",
  "S1020" : "저장 되었습니다.",
  "S1021" : "중복 참여가 불가능합니다.",
  "S1022" : "현재 결제가 불가능합니다. 다시 시도해 주세요.",
  "S1023" : "이미 취소되었거나 사용되어 취소가 불가능한 상태입니다.",
  "S1024" : "<h4 class=\"quit-completed-title\">탈퇴 시 유의사항</h4><div class=\"quit-completed-desc\">- 탈퇴 즉시 모든 개인정보와 구매 이력이 삭제되며, 동일한 아이디로 재가입 하더라도 복구되지 않습니다.\n- 삭제 후에는 구매한 상품에 대한 환불이 어려우니, 탈퇴 이전에 직접 환불 처리 등을 해야 합니다.\n- 이미 구매한 오프렌즈 소모임에도 참여하실 수 없으며 당첨된 이벤트 역시 이용이 제한됩니다.\n- 이미 쓴 게시글 등은 삭제되지 않습니다.</div>",
  "S1025" : "'-'없이 숫자만 입력",
  "S1026" : "인증번호 전송",
  "S1027" : "인증번호 재전송",
  "S1028" : "숫자 6자리 입력",
  "S1029" : "인증번호가 일치하지 않습니다.\n다시 확인 후 입력하거나 재전송 해주세요.",
  "S1030" : "탈퇴한 계정입니다. 재 가입을 원하시면 고객 센터로 문의 해 주세요.",
  "S1031" : "만료된 인증번호 입니다. 인증번호의 만료 기한은 3분 입니다.",
  "S1032" : "유효하지 않은 번호입니다. 확인 후 다시 입력해 주세요.",
  "S1033" : "개인(신용)정보 수집·이용 동의서(필수 동의서)",
  "S1034" : "개인(신용)정보 수집·이용 동의서(선택적 동의서)",
  "S1035" : "개인(신용)정보 제공 동의서(필수 동의서)",
  "S1036" : "개인(신용)정보 제공 동의서(선택적 동의서)",
  "S1037" : "<desc>당사는 「개인정보보호법」, 「신용정보의 이용 및 보호에 관한 법률」, 「정보통신망 이용촉진 및 정보보호 등에 관한 법률」에 따라 귀하의 개인(신용)정보를 다음과 같이 수집· 이용하고자 합니다.</desc>\n\n<strong>- 수집·이용의 목적</strong>\n오프렌즈 회원 계정 생성 및 관리\n\n<strong>- 수집·이용 항목</strong>\n이메일 주소\n\n<strong>- 보유 ·이용기간</strong>\n수집한 개인정보는 수집·이용에 관한 동의일로부터 <font>귀하의 수집·이용목적 달성 시까지 또는 귀하의 동의 철회 시까지</font> 보유·이용됩니다.\n\n<strong>- 동의거부권 및 불이익</strong>\n귀하는 위와 같은 정보의 수집·이용을 거부할 수 있습니다. 다만 동의하지 않을 경우 회원 가입이 불가능합니다.",
  "S1038" : "<desc>당사는 「개인정보보호법」, 「신용정보의 이용 및 보호에 관한 법률」, 「정보통신망 이용촉진 및 정보보호 등에 관한 법률」에 따라 귀하의 개인(신용)정보를 다음과 같이 수집· 이용하고자 합니다.</desc>\n\n<strong>- 수집·이용의 목적</strong>\n상품·서비스 소개 및 판매, 사은 ·판촉행사 안내, 시장조사, 재무설계컨설팅, 재정 컨설턴트 job소개\n\n<strong>- 수집·이용 항목</strong>\n개인정보 : 성명, 생년월일, 주소, 휴대전화번호, 이메일주소\n재무설계컨설팅을 위한 자산정보 및 부가정보(결혼여부, 가구단계, 직업, 월수입 등)\n\n<strong>- 보유 ·이용기간</strong>\n수집한 개인정보는 수집·이용에 관한 동의일로부터 <font>귀하가 직접 선택한 기간 또는 귀하의 동의철회시까지</font> 보유·이용됩니다.\n\n<strong>- 동의거부권 및 불이익</strong>\n귀하는 위와 같은 정보의 수집·이용을 거부할 수 있으며 동의 후에도 언제든지 철회 가능합니다. 다만 동의하지 않을 경우, 수집·이용 목적과 관련된 상품·서비스 소개 및 판매, 사은·판촉 행사 안내, 시장조사, 재무설계컨설팅, 재정 컨설턴트 job소개 등의 편의는 제공받을 수 없습니다.\n\n<strong>- 상품서비스 안내 수단</strong>\n<font>당사는 상품서비스 소개 등 수집·이용 목적을 달성하기 위하여 귀하가 직접 동의한 안내수단으로 연락할 수 있습니다.</font>\n\n<desc>※ 소비자 권익 보호에 관한 사항\n본 동의는 오프렌즈 서비스 이용에 필수적이지 않으며 동의를 거부하실 수 있습니다. 또한 동의하시더라도 프렌트립 콜센터(070-5175-6637)를 통해 철회하거나 가입권유 목적의 연락에 대한 중단을 요청하실 수 있습니다.</desc>",
  "S1039" : "<desc>당사는 「개인정보보호법」, 「신용정보의 이용 및 보호에 관한 법률」, 「정보통신망 이용촉진 및 정보보호 등에 관한 법률」에 따라 귀하의 개인(신용)정보를 다음과 같이 수집· 이용하고자 합니다.</desc>\n\n<strong>- 제공받는 자</strong>\n오렌지라이프\n오렌지라이프 모집수탁자 (보험설계사, 법인대리점 등 포함)\n오렌지라이프 업무수탁자 (카카오톡 알림 등 안내수단 제공 업체 포함)\n\n<strong>- 제공받는 자의 이용 목적</strong>\n상품·서비스 소개 및 판매, 사은·판촉행사 안내, 시장조사, 재무설계컨설팅, 재정 컨설턴트 job 소개\n\n<strong>- 제공할 항목</strong>\n[개인(신용)정보 수집·이용 동의서]의 수집·이용 항목\n\n<strong>- 제공 및 변경에 관한 세부사항</strong>\n오렌지라이프 모집수탁자, 업무수탁자의 업무내용 및 업체 현황의 세부적 내용은 오렌지라이프 홈페이지(https://www.orangelife.co.kr)에서 확인하실 수 있습니다.\n\n<strong>- 제공받은 자의 개인(신용)정보 보유·이용 기간</strong>\n제공한 개인정보는 제공에 관한 동의일로부터 <font>귀하가 직접 선택한 기간 또는 귀하의 동의철회 시까지</font> 보유·이용됩니다.\n\n<strong>- 동의거부권 및 불이익</strong>\n귀하는 위와 같은 정보의 제공을 거부할 수 있으며 동의 후에도 언제든지 철회 가능합니다. 다만 동의하지 않을 경우, 제공 목적과 관련된 상품· 서비스 소개 및 판매, 사은·판촉 행사 안내, 시장조사, 재무설계컨설팅, 재정 컨설턴트 job소개 등의 편의는 제공받을 수 없습니다.\n\n<desc>※ 본 동의 이후 동일한 목적 또는 이용범위 내에서 개인(신용)정보의 정확성, 최신성을 유지하기 위하여 제공하는 경우에는 별도의 추가 동의가 필요하지 않습니다.</desc>",
  "S1040" : "<desc>당사는 「개인정보보호법」, 「신용정보의 이용 및 보호에 관한 법률」, 「정보통신망 이용촉진 및 정보보호 등에 관한 법률」에 따라 귀하의 개인(신용)정보를 다음과 같이 제공하고자 합니다.</desc>\n\n<strong>- 제공받는 자</strong>\n판매자(호스트)\n\n<strong>- 제공받는 자의 이용 목적</strong>\n상품 판매 관계의 설정·유지·이행·관리\n\n<strong>- 제공할 항목</strong>\n이름, 성별, 나이, 연락처\n\n<strong>- 제공받은 자의 개인(신용)정보 보유·이용 기간</strong>\n제공한 개인정보는 수집·이용에 관한 동의일로부터 <font>제공 목적 후 6개월간</font> 보유·이용됩니다.\n\n<strong>- 동의거부권 및 불이익</strong>\n귀하는 위와 같은 정보의 제공을 거부할 수 있으며 동의 후에도 언제든지 철회 가능합니다. 다만 동의하지 않을 경우, 제공 목적과 관련된 상품 판매 관계의 설정·유지·이행·관리는 제공받을 수 없습니다.\n\n<desc>※ 본 동의 이후 동일한 목적 또는 이용범위내에서 개인(신용)정보의 정확성, 최신성을 유지하기 위하여 제공하는 경우에는 별도의 추가 동의가 필요하지 않습니다.</desc>",
  "S1041" : "제1조 (목적) \n① 이 약관은 주식회사 프렌트립 (이하 회사')가 운영하는 인터넷 사이트(이하 “사이트”라 함)를 통하여 제공하는 인터넷 전자상거래 관련 서비스(이하 “서비스”라 함)와 관련하여 회사와 이용자의 권리, 의무, 책임사항을 규정함을 목적으로 합니다. \n② 본 약관은 유무선 PC통신, 스마트폰(아이폰, 안드로이드폰 등) 어플리케이션 및 모바일 웹 등을 이용하는 전자상거래 등에 대해서도 그 성질에 반하지 않는 한 준용됩니다.\n\n제2조 (용어의 정의) \n이 약관에서 사용하는 용어의 정의는 다음과 같습니다.\n1. 회사가 운영하는 사이트: Ofriends.co.kr. 외 회사에서 공지하고 제공하는 기타 웹사이트 및 모바일 어플리케이션 및 모바일 웹을 포함합니다.\n2. 회사가 제공하는 서비스: 회사가 운영하는 사이트를 통하여 회원 상호간에 액티비티의 거래가 이루어질 수 있도록 사이버 거래장소를 온라인으로 제공하는 중개 서비스 및 관련 부가서비스 일체와, 액티비티의 결제가 안전하고 편리하게 이루어질 수 있는 결제대금 보호서비스를 말합니다.\n3. 이용자: 사이트에 접속하여 이 약관에 따라 회사가 제공하는 서비스를 받는 회원 및 비회원을 말합니다.\n4. 회원: 회사에 개인정보를 제공하여 회원 등록을 한 자로서, 회사의 정보를 지속적으로 제공받으며, 이 약관에 따라 회사와 서비스 이용계약을 체결한 자를 말하며, 구매회원과 판매회원으로 구별되며 이들을 통칭하여 회원이라고 합니다.\n5. 이메일: 회원의 식별과 서비스 이용을 위하여 회원이 선택하고 회사가 승인한 이메일 주소를 말합니다.\n6. 비밀번호: 회원의 동일성 확인과 회원의 권익 및 비밀 보호를 위하여 회원 스스로가 설정하여 회사에 등록한 영문과 숫자의 조합을 말합니다.\n7. 에너지: 이용자가 유상으로 결제하여 충전하거나, 회사로부터 적립 받아 사이트에서 상품 구매, 서비스 이용 등에 사용할 수 있는 전자적 지급수단을 말합니다.\n이 약관에서 정의되지 않은 용어는 관련법령이 정하는 바에 따르며, 그 외에는 일반적인 상거래 관행에 의합니다.\n\n제3조 (약관의 명시, 효력과 개정)\n① 회사는 약관의 규제에 관한 법률, 전자거래기본법, 전자서명법, 정보통신망 이용촉진 및 정보보호 등에 관한 법률, 전자상거래 등에서의 소비자보호에 관한 법률, 전자금융거래법, 위치정보의 보호 및 이용 등에 관한 법률 등 관련법을 위배하지 않는 범위에서 본 약관을 개정할 수 있습니다.\n② 회사가 약관을 개정할 경우에는 적용일자 및 개정사유를 명시하여 현행 약관과 함께 사이트 초기화면에 최소 적용일자 7일 이전부터 적용일자 전일까지 공지합니다. 다만, 이용자의 권리에 중대한 영향을 주는 변경이 이루어질 경우에는 적용일자 30일 이전부터 공지합니다.\n③ 제2항에 따라 공지된 적용일자 이후에 회원이 회사의 서비스를 계속 이용하는 경우에는 개정된 약관에 동의하는 것으로 간주합니다. 다만, 개정된 약관에 동의하지 아니하는 회원은 언제든지 자유롭게 서비스 이용계약을 해지할 수 있습니다.\n④ 이 약관에서 정하지 아니한 사항은 대한민국 법령과 상관례에 따릅니다. \n\n제4조 (이용계약의 성립)\n① 이용계약은 이용자의 약관 동의, 이용신청, 회사의 승낙에 의하여 성립합니다.\n② 이용계약의 성립시기는 회사의 승낙이 이메일로 회원에게 도달한 시점으로 합니다.\n③ 관련법령에 의거 만14세 미만의 회원 가입이 제한됩니다. \n\n제5조 (이용신청 및 승낙)\n① 이용자는 회사가 정한 가입 양식에 따라 회원정보를 기입한 후 가입 의사를 표시함으로써 이용계약을 신청합니다.\n② 회사는 다음 각 호에 해당하는 이용신청에 대하여는 이를 승낙하지 아니하거나 사후에 이용계약을 해지할 수 있습니다. \n1. 이미 가입된 회원과 이메일 주소가 동일한 경우 타인의 명의를 도용하거나, 등록 내용에 허위, 기재누락, 오기가 있는 경우 \n2. 회사에 의하여 이용계약이 해지된 날로부터 3개월 이내에 재이용을 신청하는 경우 \n3. 이 약관에 의하여 이전에 회원자격을 상실한 적이 있는 경우(회원자격 상실 후 3개월이 경과한 자로서 회사의 회원 재이용 승낙을 얻은 경우에는 예외) \n4. 부정한 용도 또는 영리를 추구할 목적으로 본 서비스를 이용하고자 하는 경우 \n5. 이전에 동일∙유사한 아이디 또는 다른 아이디를 통하여 부정한 사용을 한 이력이 있거나 의심되는 경우 \n6. 관련법령에 위배되거나 사회의 안녕질서 혹은 미풍양속을 저해할 수 있는 목적으로 신청한 경우 \n7. 회사의 설비 미흡 또는 기술상의 어려움으로 인하여 서비스를 제공할 수 없는 합리적인 사유가 있는 경우 \n8. 만14세 미만의 아동이 이용신청을 하는 경우 \n9. 기타 위법 또는 부당한 이용신청임이 확인된 경우 및 회사가 이용신청 거절 또는 이용계약 해지가 필요한 정당한 사유가 있다고 판단하는 경우, 회사는 이용신청의 거절 또는 이용계약을 해지할 수 있습니다.\n\n제6조 (회원정보의 수정)\n회원은 이용신청 시 작성한 이용신청 사항에 변경이 있는 경우, 온라인으로 개인정보를 수정하거나 이메일, 전화, 팩스 등의 방법으로 회사에 그 변경사항을 알려야 합니다. 이를 알리지 않아 발생하는 불이익에 대한 모든 책임은 회원에게 있습니다.\n\n제7조 (이용계약의 종료)\n① 회원의 해지: 회원은 언제든지 회사에게 해지의사를 통지함으로써 이용계약을 해지할 수 있습니다. 이용계약은 회사가 회원의 해지의사를 받아 해지 처리하는 시점에 종료됩니다. 본 항에 따라 해지를 한 회원은 이 약관이 정하는 회원가입절차와 관련조항에 따라 회원으로 다시 가입할 수 있습니다.\n② 회사의 해지: 회사는 제8조 제1항 각호 사유로 인한 영구이용정지에 해당되는 경우 회원과의 이용계약을 해지할 수 있습니다. 회사는 회원에게 이메일, 전화, SMS, 팩스 등의 방법을 통하여 해지사유를 밝혀 해지 의사를 통지합니다. 회사는 해당 회원에게 사전에 해지사유에 대한 의견진술의 기회를 부여할 수 있습니다. \n\n제8조 (이용제한 등)\n① 회사는 회원이 다음 각 호의 사유에 해당하는 경우 경고, 일시정지, 영구이용정지 등으로 서비스의 이용을 단계적으로 제한할 수 있습니다. \n1. 가입 신청 시 허위 내용을 등록한 경우\n2. 물품 또는 서비스에 대한 대금 결제 기타 서비스 이용과 관련하여 회원이 부담하는 채무를 기일에 이행하지 않는 경우 \n3. 타인의 서비스 이용을 방해하거나 정보를 도용하는 등 전자상거래 질서를 위협하는 경우 \n4. 회사를 이용하여 법령과 이 약관이 금지하거나 공공질서, 미풍양속에 반하는 행위를 하는 경우 \n5. 회원이 구매한 물품을 고의로 훼손한 후 교환, 환불 등의 보상을 요구한 사실이 확인되는 경우\n6. 회원이 물품 또는 서비스 구매 시 결제 정보를 임의로 조작하여 정상 결제가격보다 못 미치는 금액을 결제한 경우\n7. 회원이 회사가 승인하지 않은 방법으로 에너지를 획득하거나, 부정한 목적이나 용도로 에너지를 사용하는 경우\n② 회사는 전항에도 불구하고 명의도용 및 결제정보 도용, 저작권법, 정보통신망 이용촉진 및 정보보호 등에 관한 법률을 위반한 불법 통신 및 해킹, 악성프로그램의 배포 등의 경우에 즉시 영구이용정지를 할 수 있습니다.\n③ 이용자의 행위가 본 조의 영구이용정지 사유에 해당되는 경우, 해당 이용자가 제17조제3항에 따라 적립한 에너지 및 기타 혜택 등을 포기한 것으로 보고, 회사는 이에 대해 별도로 보상하지 않습니다. 이때 영구정지는 회사가 공식적으로 2회 이상 경고 한 경우 진행할 수 있습니다.\n\n제9조 (회원의 이메일 및 비밀번호에 대한 의무)\n① 회원은 본인의 이메일과 비밀번호에 관한 관리책임이 있으며, 이를 소홀히 하여 발생한 모든 민형〮사상의 책임은 회사의 고의 또는 중과실이 없는 한 회원 자신에게 있습니다.\n② 회원은 자신의 이메일 및 비밀번호를 제3자에게 알려주어서는 안되며, 회원이 이메일과 비밀번호를 제3자에게 알려줌으로써 발생한 손해에 대해서는 회사는 책임을 지지 않습니다. 이메일과 비밀번호가 회원의 의사에 반하여 유출되거나 기타의 사정으로 제3자가 사용하고 있음을 인지한 경우 즉시 비밀번호를 변경하여야 하고, 회사에 통보한 다음 회사의 안내를 따라야 합니다. 이를 소홀히 하여 발생한 모든 책임은 회원이 집니다.\n\n제10조 (회원의 의무)\n① 회원은 관계법령, 이 약관의 규정, 이용안내 등 회사가 통지하는 사항을 준수하여야 하며, 기타 타인의 권익을 침해하거나, 회사 업무에 방해되는 행위를 하여서는 안됩니다.\n② 회원은 서비스 이용과 관련하여 다음 각 호의 행위를 하여서는 안됩니다. \n1. 이용계약 신청 또는 이용정보 변경 시 허위내용의 등록 \n2. 회사의 서비스에 게시된 정보 또는 회원이 서비스를 이용하여 얻은 정보를 회사의 사전 승낙 없이 영리 또는 비영리의 목적으로 복제, 출판, 방송 등에 사용하거나 제3자에게 제공하는 행위 \n3. 회사가 게시한 정보의 허가 받지 않은 변경 \n4. 회사가 제공하는 서비스 및 사이트를 이용하여 회사의 사전 승낙 없이 본인 또는 제3자를 홍보하거나, 홍보할 기회를 제공하는 행위\n5. 회사가 제공하는 서비스 및 사이트를 이용하여 본인을 홍보하거나 제3자의 홍보를 대행하는 등의 방법으로 금전을 수수하는 행위\n6. 서비스를 이용할 권리를 양도하고 이를 대가로 금전을 수수하는 행위 \n7. 회사가 정한 정보 이외의 정보(컴퓨터 프로그램 등)의 송신 또는 게시 \n8. 다른 회원의 아이디 및 비밀번호를 도용하여 서비스를 이용하는 행위 \n9. 회사에서 물품이나 서비스를 이용하는 대가로 타인의 계좌번호, 신용카드 등의 결제정보를 허락 없이 이용하는 행위 \n10. 정크메일, 스팸메일, 행운의 편지, 광고메일, 외설 또는 폭력적인 메시지, 동영상, 음성 등이 담긴 메일을 보내는 행위 \n11. 외설 또는 폭력적인 메시지, 동영상, 음성 기타 공공질서, 미풍양속에 반하는 정보, 문장, 도형, 동영상, 음성 등 사이트에 공개, 게시 또는 다른 이용자에게 유포하는 행위 \n12. 회사의 직원이나 서비스의 관리자로 가장, 사칭하거나 타인의 명의를 도용하여 글을 게시하거나 메일을 발송하는 행위 \n13. 컴퓨터 소프트웨어, 하드웨어, 전기통신 장비의 정상적인 가동을 방해, 파괴할 목적으로 고안된 소프트웨어 바이러스, 기타 다른 컴퓨터 코드, 파일, 프로그램을 포함하는 자료를 게시하거나 메일로 발송하는 행위 \n14. 스토킹, 욕설, 채팅 글 도배 등 다른 회원의 서비스 이용을 방해하는 행위, 다른 회원의 개인정보를 그 동의 없이 수집, 저장, 공개, 유포하는 행위 불특정 다수의 회원을 대상으로 하여 광고 또는 선전물을 게시하거나 관련 사이트를 링크하는 행위 \n15. 특정 재화 또는 서비스를 실제 구매 또는 사용하지 않았음에도 불구하고 마치 구매 또는 사용한 듯한 외관을 보이면서 회사의 사이트나 기타 매체를 통해 통상의 비판범위를 초과하여 관련 재화/서비스의 품질을 폄하하거나 회사를 비난하는 행위 \n\n제11조 (회사의 의무)\n① 회사는 관련법령과 이 약관이 금지하거나 공공질서, 미풍양속에 반하는 행위를 하지 않으며, 이 약관이 정하는 바에 따라 지속적이고 안정적으로 서비스를 제공하기 위하여 최선을 다하여야 합니다.\n② 회사는 이용자가 안전하게 서비스를 이용할 수 있도록 이용자의 개인정보(신용정보 포함) 보호를 위한 보안 시스템을 갖추어야 하며 개인정보 취급방침을 공시하고 준수합니다.\n③ 회사는 관련법령이 정한 의무사항을 준수합니다.\n\n제12조 (회사가 제공하는 서비스에 대한 약관 및 이용조건)\n① 회사는 통신판매중개자로서 회원 상호간의 거래를 위한 온라인 거래장소를 제공할 뿐이므로 물품을 판매하거나 구매하고자 하는 회원을 대리하지 않습니다. 또한, 회사의 어떠한 행위도 전문가 또는 의뢰인을 대리하는 행위로 간주되지 않습니다.\n② 회사는 중개서비스를 통하여 이루어지는 회원간의 판매 및 구매와 관련하여 판매 의사 또는 구매 의사의 존부 및 진정성, 등록 물품의 품질, 완전성, 안전성, 적법성 및 타인의 권리에 대한 비 침해성, 회원이 입력하는 정보 및 그 정보를 통하여 링크된 URL에 게재된 자료의 진실성 등 일체에 대하여 보증하지 아니하며, 이와 관련하여 회사를 면책합니다.  \n③ 회사는 판매 회원이 게재하는 서비스 설명 등의 제반 정보를 통제하거나 제한하지 않습니다. 다만, 회사는 회원이 게재한 정보의 내용이 타인의 명예, 권리를 침해하거나 법규정을 위반한다고 판단하는 경우에는 이를 삭제할 수 있고, 부가적으로 판매 취소, 판매중지, 기타 필요한 조치를 취할 수 있으며, 판매 회원은 자신이 의도한 판매 효과의 미흡 등을 이유로 회사에 어떠한 책임도 물을 수 없습니다.\n\n제13조 (서비스 이용시간)\n서비스의 이용은 회사의 업무상 또는 기술상 특별한 지장이 없는 한 연중무휴 1일 24시간을 원칙으로 합니다.\n\n제14조 (서비스 제공의 중지)\n① 전항에도 불구하고 회사는 다음 각 호에 해당하는 경우 서비스 제공을 중지할 수 있습니다. \n1. 서비스용 하드웨어, 소프트웨어 등의 보수, 정기 및 비상 점검의 경우 \n2. 전기통신사업법에 규정된 기간통신사업자가 전기통신 서비스를 중지했을 경우 \n3. 기타 불가항력적 사유가 있는 경우\n② 회사는 국가비상사태, 정전, 서비스 설비의 장애 또는 서비스 이용의 폭주 등으로 정상적인 서비스 이용에 지장이 있는 때에는 서비스의 전부 또는 일부를 제한하거나 정지할 수 있습니다. 이로 인하여 발생한 손해에 대해서는 회사는 책임을 부담하지 않습니다. \n\n제15조 (사용 가능한 결제 수단)\n회원은 회사가 운영하는 사이트에서 이루어지는 물품 또는 서비스 거래에 대한 대금 지급방법을 다음 각 호의 하나로 할 수 있습니다. \n1. 신용카드 \n2. 실시간 계좌이체 \n3. 휴대폰 결제 \n4. 에너지 \n5. 기타 회사가 지정하는 지급 수단 \n\n제16조(에너지 일반) \n① 회원은 에너지를 회사의 사이트에서 상품 구매, 서비스 이용 시 대금 지급 수단으로 사용할 수 있습니다.\n② 회원이 에너지를 사용하는 경우 회원이 충전한 에너지와 회사가 적립해 준 에너지 중 회원이 충전한 에너지가 우선적으로 사용됩니다.\n③ 회원은 에너지를 제3자에게 양도할 수 없으며, 유상 또는 무상으로 거래할 수 없습니다.\n④ 회원이 회사가 승인하지 않은 방법으로 에너지를 획득하거나, 부정한 목적이나 용도로 에너지를 사용하는 경우, 회사는 회원의 에너지의 사용을 제한하거나 에너지를 사용한 구매신청을 취소할 수 있습니다.\n\n제17조 (충전 에너지) \n① 회원은 회사의 사이트에서 회사가 정한 방법(유상 결제 방식)으로 에너지를 충전할 수 있습니다. \n② 회원은 제1항에 의하여 충전한 에너지(이하 “충전 에너지”라 합니다)의 미사용 잔액에 대하여 언제든지 환급을 요구할 수 있고, 이 경우 회사는 지체없이 환급해주어야 하며, 회사는 이를 위한 절차를 마련합니다.\n③ 회원 탈퇴 시 충전 에너지 중 미사용한 에너지는 환급을 요구할 수 있습니다. 단, 제8조 제3항으로 인한 영구이용정지의 경우에는 그러하지 아니하다.      \n④ 회원이 제15조에 의한 결제를 취소하는 경우 환급금은 충전 에너지로 지급합니다. 취소에 따른 위약금이 있는 경우 회원의 에너지를 차감하는 방법으로 지급되도록 합니다. \n\n제18조 (적립 에너지) \n① 회사는 회원의 구매활동, 서비스 이용, 이벤트 참여 등에 따라 회원에게 일정한 에너지를 무상으로 적립해 줄 수 있습니다. \n② 회사는 제1항에 의한 에너지의 적립기준, 적립제한, 사용방법, 사용기준 및 사용제한에 관한 사항(이하 “에너지 적립조건”이라 합니다)에 정하여 서비스 화면에 게시하거나 회원에게 통지합니다. 단, 회사의 정책에 따라 에너지 적립조건은 사전 통지 없이 변경될 수 있습니다. \n③ 회사가 제1항에 의하여 적립해 준 에너지(이하 “적립 에너지”라 합니다)의 유효기간은 적립된 날로부터 1년이며, 유효기간 동안 사용하지 않을 경우 자동적으로 소멸됩니다.\n④ 적립 에너지는 어떠한 경우에도 현금으로 환급 또는 전환될 수 없습니다. \n⑤ 적립 에너지를 사용하는 경우 유효기간 종료일이 먼저 도래하는 순서로 사용됩니다.\n⑥ 제17조 제4항에도 불구하고 회원이 적립 에너지로 지급한 결제를 취소하는 경우 적립 에너지를 환급합니다. 단, 해당 적립 에너지의 유효기간이 만료된 경우에는 환급되지 아니합니다. \n⑦ 상품구매, 서비스 이용, 결제 등이 취소되는 경우 그에 따라 회원에게 적립된 에너지는 취소되어 효력을 상실합니다. \n⑧ 회원 탈퇴 시 중 미사용한 적립 에너지는 즉시 소멸되며, 탈퇴 후 재가입하더라도 복구되지 아니합니다. \n\n제 19조 (구매신청) \n①\t회원은 이 약관 및 회사가 정한 바에 따라 아래와 같이 판매회원의 물품 또는 서비스에 대한 구매를 신청합니다. 이 경우 회원에게 회원정보(성명, 연락처) 입력, 물품 또는 서비스 선택사항 입력, 판매회원으로부터 배송 받는 물품의 경우 배송 지 정보(성명, 연락처, 주소) 입력을 요청할 수 있으며 결제방법 선택 시 결제방법에 따른 결제 정보 개인정보 제3자 제공 및 이용 조건에 동의하여야 결제가 가능합니다. \n②\t결제와 관련하여 회원이 입력한 정보 및 그 정보와 관련하여 발생한 불이익은 회원이 부담합니다.\n\n제 20조 (정보의 제공)\n회사는 서비스 이용에 관한 다양한 정보를 이메일, 우편, SMS 등의 방법으로 회원에게 제공할 수 있으며 회원은 수신을 거부할 수 있습니다. 단, 회사는 서비스 이용에 필수적으로 요구되는 정보(관련 규정 및 정책의 변경 등)의 경우에는 이를 제공할 수 있습니다.\n\n제 21조 (배송)\n① 중개서비스를 이용하여 체결된 거래 중 판매회원이 구매회원에게 물품 등을 배송하여야 하는 경우, 모든 배송은 회사가 지정한 택배 서비스에 의하고, 상품에 따라 배송비가 부과될 수 있습니다. 단, 회원이 배송비를 부과해야 할 경우에는 제품 상세 페이지에 이를 미리 고지합니다. \n② 배송 절차는 “주문완료” 후 다음과 같은 절차로 즉시 진행합니다. \n1. 판매회원은 대한민국 내의 주소지로의 배송만 제공합니다.\n2. 대한민국의 공휴일 및 기타 휴무일에는 배송과정이 진행되지 않습니다. 배송 소요기간은 공휴일을 포함하지 않습니다.\n3. 폭설폭우나 천재지변 등 불가항력적인 사유 발생 시 그 기간은 배송 소요기간에서 제외됩니다.\n4. 판매회원이 품절 등의 사유로 회원이 구매 신청한 물품을 제공할 수 없을 때에는, 회원으로부터 대금을 받은 날로부터 3 영업일 이내에 환불에 필요한 조치를 취하고, 그 사유를 회원에게 통지합니다.\n5. 구매회원이 기재한 배송지로의 물품 배송이 불가능할 경우에는 판매회원은 구매회원에게 통지하고 배송 방법을 변경하거나 추가비용을 부과할 수 있습니다.\n\n제 22조 (저작권 등의 귀속 및 이용제한)\n① 회사가 작성한 저작물에 대한 저작권, 특허권, 상표권, 기타 지적재산권은 회사에 귀속됩니다.\n② 회원은 서비스를 이용함으로써 얻은 정보를 회사의 사전 승낙 없이 복제, 송신, 출판, 배포, 방송 등 기타 방법에 의하여 이용하거나 제3자에게 이용하게 하여서는 안됩니다.\n③ 회원이 촬영한 사진, 영상, 글 등(이하 ‘콘텐츠’라 합니다)에 대한 저작권은 원칙적으로 회원에게 귀속됩니다. \n④ 회원은 콘텐츠를 회사에 제공할 수 있으며 콘텐츠 제공 시점부터 다음과 같은 내용의 이용권한을 부여합니다. \n1) 이용 목적: 서비스 홍보 \n2) 이용 권한: 복제, 배포, 전시, 수정, 공연, 파생 저작물 제작이 가능한, 취소불가능한, 비 독점적인, 로열티가 없는, 완납된, 전세계적인 라이선스 권한\n\n제23조 (개인정보보호)\n① 회사는 회원의 개인정보를 보호하기 위하여 정보통신망 이용촉진 및 정보보호 등에 관한 법률, 개인정보 보호법 등 관계 법령에서 정하는 바를 준수합니다.\n② 회사는 이용계약을 위하여 회원이 제공한 정보를 회사의 서비스 운영을 위한 목적 이외의 용도로 사용하거나 회원의 동의 없이 제3자에게 제공하지 않습니다. 단, 다음 각 호의 경우에는 예외로 합니다. \n1. 법령에 근거하여 회원정보의 이용과 제3자에 대한 정보제공이 허용되는 경우 \n2. 물품 배송업무 등 거래 이행에 필요한 최소한의 회원정보(성명, 주소, 연락처 등)를 배송업체에 알려주는 경우 \n3. 기타 회사의 약관 및 정책에 따라 회원의 동의를 구한 경우 \n4. 회사는 관련 법령에 따라 회원의 개인정보를 최대한 보호하기 위하여 노력합니다.\n\n제 24조 (면책 조항)\n① 회사는 천재지변 또는 이에 준하는 불가항력으로 인하여 회원에게 서비스를 제공할 수 없는 경우에는 서비스 제공에 관한 책임이 면제됩니다.\n② 회사는 회원의 귀책사유로 인한 서비스 이용의 장애에 대하여 책임을 지지 않습니다.\n③ 회사는 회원이 서비스를 이용하여 기대하는 수익을 상실한 것에 대하여 책임을 지지 않으며, 그 밖의 서비스를 통하여 얻은 자료로 인한 손해에 관하여 책임을 지지 않습니다.\n④ 회사는 회원이 게재한 정보, 자료, 사실의 신뢰도, 정확성 등 내용에 관해서는 책임을 지지 않습니다.\n⑤ 회사는 회원간 또는 회원과 제3자 상호간에 서비스를 매개로 하여 거래 등을 한 경우에는 책임을 지지 \n⑥ 회원이 발송한 메일 내용에 대한 법적인 책임은 회원에게 있습니다.\n⑦ 회사가 통신판매중개자로서 회원들에게 제공하는 서비스는 온라인 거래장소(marketplace)를 제공하거나 안전한 결제 수단을 제공하고 기타 부가정보를 제공함에 그치는 것이므로 중개서비스를 통하여 이루어지는 회원 상호간의 거래와 관련된 서비스 판매진행의 관리, 의뢰인에 대한 거래이행, 서비스발송, 청약철회 또는 반품, 취소요청으로 인한 분쟁해결 등 필요한 사후처리는 거래당사자인 회원들이 직접 수행하여야 합니다. \n⑧ 단, 회사는 전문가와 구매자간 분쟁이 발발했음을 양 당사자 중 한 명 이상으로부터 통보를 받을 경우 전자상거래법에 의거 원만한 분쟁해결 지원을 위해 거래 및 양자의 사이트상 계정에 개입 혹은 기타 분쟁해결에 필요하다고 판단되는 모든 조치(거래금액 동결, 계정정지 등)를 취할 수 있으며, 이 조치는 분쟁이 해결되는 시점까지 지속될 수 있습니다. 단, 회사에서 회원간 자체적으로 분쟁 해결이 어렵다고 판단되는 경우 회사는 하기의 외부기관들에 분쟁을 이관할 수 있으며, 이관된 시점 이후부터는 분쟁조정권고 등 이관된 기관의 의견을 신뢰하며 이를 기준으로 분쟁관련 업무를 처리합니다. \n- 대한상사중재원 ( http://www.kcab.or.kr/intro.jsp ) \n- 한국소비자원 ( http://www.kca.go.kr ) \n- 한국공정거래조정원 ( http://www.kofair.or.kr/goMain.do ) \n- 정보통신산업진흥원 전자문서·전자거래분쟁조정위원회 ( http://www.ecmc.or.kr )\n- 한국콘텐츠진흥원 콘텐츠분쟁조정위원회 ( https://www.kcdrc.kr)\n\n제 25조 (분쟁 해결)\n① 회사는 이용자가 제기하는 정당한 의견이나 불만을 반영하고 그 피해를 보상처리 하기 위해서 피해보상처리 기구를 설치, 운영합니다.\n② 회사는 이용자로부터 제출되는 불만사항 및 의견을 지체 없이 처리하고자 최선을 다하여야 합니다. 단, 신속한 처리가 곤란한 경우에는 이용자에게 그 사유와 처리 일정을 통보합니다.\n\n제 26조 (준거법 및 관할법원) \n이 약관의 해석 및 회사와 회원 간의 분쟁에 대하여는 대한민국의 법령을 적용합니다.\n<부칙> 제1조 (시행일자) 2019년 11월 25일부터 시행됩니다.\n㈜프렌트립",
  "S1042" : "유효기간 구매일로부터 90일",
  "S1043" : "축! 슈퍼프렌즈 고객님,\n오프렌즈의 혜택을 마음껏 누려보세요~\n(광고성 정보 SMS 수신 동의 완료)",
  "S1044" : "쿠폰 적용을 위한 마케팅 동의를 진행해주세요.",
  "S1045" : "올바른 주민등록번호를 입력해 주세요.",
  "S1046" : "탈퇴한 이메일 계정입니다. 다른 이메일 계정으로 가입해 주세요.",
  "S1047" : "로그인 해주세요",
  "S1048" : "<p class=\"main-event-msg\", style=\"text-align:left\">[오프렌즈 론칭 기념 이벤트]\n\n- 50% 할인 강좌 쿠폰 (선착순 2,000명) => 제공 완료\n- 스타벅스 커피 쿠폰 (추첨 1,000명) => 1월 23일 발송\n\n★이벤트 조기마감★\n\n- 성원에 감사드리며, 1월에 오픈되는 이벤트도 기대해 주세요</p>",
  "S1049" : "운영시간 - <strong>평일 11:00 ~ 18:00</strong> (점심시간 - 13:00 ~ 14:00)",
  "S1050" : "라이프 신청내역이 없습니다.",
  "S1051" : "작성 가능한 후기가 없습니다.",
  "S1052" : "회원 정보를 가져오는데 실패했습니다. 다시 시도해 주세요.",
  "S1053" : "이름은 최소 2자 이상 입력해 주세요.",
  "S1054" : "닉네임은 최소 1자 이상 입력해 주세요.",
  "S1055" : "올바른 이름을 입력해 주세요.",
  "S1056" : "오프렌즈의 모든 혜택을 즐길 수 있는 회원으로, 이벤트 참여 및 강좌 할인 쿠폰 등 다양한 혜택을 받을 수 있습니다.\n혜택 제공을 위해 마케팅 동의를 진행해주세요.",
  "S1057" : "현재 수량이 부족합니다.",
  "S1058" : "예상하지 못한 문제가 발생했습니다. 고객센터로 연락 부탁드립니다.",
  "S1059" : "이미 사용된 쿠폰이거나 만료된 쿠폰입니다.",
  "S1060" : "해당 페이지에서 나갈 시 참여가 취소됩니다. 계속 하시겠습니까?",
  "S1061" : "참여완료! 자세한 정보는 내 프로필 -> 내 라이프 -> 신청내역에서 확인 해 주세요.",
  "S1062" : "참여완료! 자세한 결제 정보는 내 프로필 -> 내 라이프 -> 신청내역에서 확인 해 주세요.",
  "S1063" : "매진 된 상품입니다.",
  "S0164" : "종료된 이벤트입니다.",
  "S0165" : "진행중인 이벤트가 없습니다.",
  "S0166" : "※ SMS 연락방식에 체크해 주셔야 오프렌즈 강좌 할인 쿠폰 등 서비스가 제공되며 마케팅동의 등록이 가능합니다.",
  "S0167" : "SMS 연락방식을 선택하셔야 등록이 가능합니다.",
  "S0168" : "축! 슈퍼프렌즈 고객님, 오프렌즈의 혜택을 마음껏 누려보세요~ (광고성 정보 SMS 수신 동의 완료)",
  "S0169" : "프로필 사진이 변경되었습니다.",
  "S0170" : "최소 결제 금액(",
  "S0171" : " 이상 결제시에만 사용가능한 쿠폰입니다."
}
